Value,Label
20MICRONS,20 MICRONS LIMITED
21STCENMG,TWENTYFIRST CENTURY MANAGEMT
3IINFOTEC,3I INFOTECH LIMITED
3MINDIA,3M INDIA LTD
3PLAND,3P LAND HOLDINGS LIMITED
5PAISA,5 PAISA CAPITAL LIMITED
63MOONS,63 MOONS TECHNOLOGIES LTD
8KMILES,8K MILES SOFTWARE SERVICES L
A2ZINFRA,A2Z INFRA ENGINEERING LTD
AAKASH,AAKASH EXPLORATION SERVICES
AARTIDRUG,AARTI DRUGS LIMITED
AARTIIND,AARTI INDUSTRIES LIMITED
AARVEEDEN,AARVEE DENIMS & EXPORTS LTD
AARVI,AARVI ENCON LTD
ABAN,ABAN OFFSHORE LIMITED
ABB,ABB INDIA LTD
ABBOTINDI,ABBOTT INDIA LTD
ABCAPITAL,ADITYA BIRLA CAPITAL LIMITED
ABFRL,ADITYA BIRLA FASHION AND RET
ABGSHIP,ABG SHIPYARD LTD
ABHISHEK,ABHISHEK CORPORATION LTD
ACC,ACC LIMITED
ACCELYA,ACCELYA KALE SOLUTIONS LTD
ACCORD,ACCORD SYNERGY LTD
ACE,ACTION CONSTRUCTION EQUIPMEN
ACEINTEG,ACE INTEGRATED SOLUTIONS LTD
ADANIENT,ADANI ENTERPRISES LTD
ADANIGREE,ADANI GREEN ENERGY LTD
ADANIPORT,ADANI PORTS AND SPECIAL ECON
ADANIPOWE,ADANI POWER LIMITED
ADANITRAN,ADANI TRANSMISSION LTD
ADFFOODS,ADF FOODS LTD
ADHUNIK,ADHUNIK METALIKS LTD
ADHUNIKIN,ADHUNIK INDUSTRIES LTD
ADLABS,ADLABS ENTERTAINMENT LTD
ADORWELD,ADOR WELDING LTD
ADROITINF,ADROIT INFOTECH LTD
ADSL,ALLIED DIGITAL SERVICES LTD
ADVANIHOT,ADVANI HOTELS & RES (INDIA)
ADVENZYME,ADVANCED ENZYME TECHNOLOGIES
AEGISCHEM,AEGIS LOGISTICS LTD
AFL,ACCEL FRONTLINE LTD
AGARIND,AGARWAL INDUSTRIAL CORPORATI
AGCNET,AGC NETWORKS LIMITED
AGLSL,ARTEMIS GLOBAL LIFE SCIENCE
AGRITECH,AGRI-TECH INDIA LIMITED
AGROPHOS,AGRO PHOS INDIA LTD
AHIMSA,AHIMSA INDUSTRIES LTD
AHLEAST,ASIAN HOTELS EAST LTD
AHLUCONT,AHLUWALIA CONTRACTS LTD
AHLWEST,ASIAN HOTELS WEST LTD
AIAENG,AIA ENGINEERING LTD
AICHAMP,AI CHAMPDANY INDUSTRIES LTD
AIFL,ASHAPURA INTIMATES FASHION L
AIRAN,AIRAN LTD
AIROLAM,AIRO LAM LTD
AISL,ANI INTEGRATED SERVICES LTD
AJANTPHAR,AJANTA PHARMA LTD
AJMERA,AJMERA REALTY & INFRA INDIA
AJOONI,AJOONI BIOTECH LTD
AKASH,AKASH INFRA-PROJECTS LTD
AKSHARCHE,AKSHARCHEM INDIA LTD
AKSHOPTFB,AKSH OPTIFIBRE LIMITED
AKZOINDIA,AKZO NOBEL INDIA LTD
ALANKIT,ALANKIT LTD
ALBERTDAV,ALBERT DAVID LTD
ALBK,ALLAHABAD BANK
ALCHEM,ALCHEMIST LTD
ALEMBICLT,ALEMBIC LIMITED
ALICON,ALICON CASTALLOY LIMITED
ALKALI,ALKALI METALS LIMITED
ALKEM,ALKEM LABORATORIES LTD
ALKYLAMIN,ALKYL AMINES CHEMICALS LTD
ALLCARGO,ALLCARGO LOGISTICS LTD
ALLSEC,ALLSEC TECHNOLOGIES LIMITED
ALMONDZ,ALMONDZ GLOBAL SECURITIES LT
ALOKTEXT,ALOK INDUSTRIES LTD
ALPA,ALPA LABORATORIES LIMITED
ALPHAGEO,ALPHAGEO (INDIA) LIMITED
ALPSINDUS,ALPS INDUSTRIES LIMITED
AMARAJABA,AMARA RAJA BATTERIES LTD
AMBER,AMBER ENTERPRISES INDIA LTD
AMBIKCO,AMBIKA COTTON MILLS LTD
AMBUJACEM,AMBUJA CEMENTS LIMITED
AMDIND,AMD INDUSTRIES LIMITED
AMJLAND,AMJ LAND HOLDINGS LIMITED
AMJUMBO,A&M JUMBO BAGS LTD
AMRUTANJA,AMRUTANJAN HEALTH CARE LTD
AMTEKAUTO,AMTEK AUTO LIMITED
ANANTRAJ,ANANT RAJ LTD
ANDHRABAN,ANDHRA BANK
ANDHRACEM,ANDHRA CEMENTS LTD
ANDHRSUGA,ANDHRA SUGARS LTD
ANGIND,ANG INDUSTRIES LIMITED
ANIKINDS,ANIK INDUSTRIES LIMITED
ANSALAPI,ANSAL PROPERTIES & INFRASTRU
ANSALHSG,ANSAL HOUSING & CONSTRUCT
ANTGRAPHI,ANTARCTICA LTD
APARINDS,APAR INDUSTRIES LIMITED
APCL,ANJANI PORTLAND CEMENT LTD
APCOTEXIN,APCOTEX INDUSTRIES LTD
APEX,APEX FROZEN FOODS LTD
APLAPOLLO,APL APOLLO TUBES LTD
APLLTD,ALEMBIC PHARMACEUTICALS LTD
APOLLO,APOLLO MICRO SYSTEMS LTD
APOLLOHOS,APOLLO HOSPITALS ENTERPRISE
APOLLOTYR,APOLLO TYRES LIMITED
APOLSINHO,APOLLO SINDOORI HOTELS LTD
APTECHT,APTECH LTD
ARCHIDPLY,ARCHIDPLY INDUSTRIES LIMITED
ARCHIES,ARCHIES LTD
ARCOTECH,ARCOTECH LTD
ARENTERP,RAJDARSHAN INDUSTRIES LTD
ARIES,ARIES AGRO LIMITED
ARIHANT,ARIHANT FOUNDATIONS & HOUSIN
ARIHANTSU,ARIHANT SUPERSTRUCTURES LTD
ARMANFIN,ARMAN FINANCIAL SERVICES LTD
AROGRANIT,ARO GRANITE INDUSTRIES LTD
ARROWGREE,ARROW GREENTECH LTD
ARROWTEX,ARROW TEXTILES LTD
ARSHIYA,ARSHIYA LTD
ARSSINFRA,ARSS INFRASTRUCTURE PROJECTS
ARTNIRMAN,ART NIRMAN LTD
ARVEE,ARVEE LABORATORIES INDIA LTD
ARVIND,ARVIND LTD
ARVSMART,ARVIND SMARTSPACES LIMITED
ASAHIINDI,ASAHI INDIA GLASS LTD
ASAHISONG,ASAHI SONGWON COLORS LIMITED
ASAL,AUTOMOTIVE STAMPINGS & ASSEM
ASHAPURMI,ASHAPURA MINECHEM LIMITED
ASHIANA,ASHIANA HOUSING LTD
ASHIMASYN,ASHIMA LIMITED
ASHOKA,ASHOKA BUILDCON LTD
ASHOKLEY,ASHOK LEYLAND LIMITED
ASIANHOTN,ASIAN HOTELS NORTH LTD
ASIANPAIN,ASIAN PAINTS LTD
ASIANTILE,ASIAN GRANITO INDIA LIMITED
ASLIND,ASL INDUSTRIES LTD
ASPINWALL,ASPINWALL & CO LTD/INDIA
ASSAMCO,ASSAM CO INDIA LTD
ASTEC,ASTEC LIFESCIENCES LTD
ASTERDM,ASTER DM HEALTHCARE LTD
ASTRAL,ASTRAL POLY TECHNIK LTD
ASTRAMICR,ASTRA MICROWAVE PRODUCTS LTD
ASTRAZEN,ASTRAZENECA PHARMA INDIA LTD
ASTRON,ASTRON PAPER & BOARD MILL LT
ATFL,AGRO TECH FOODS LTD
ATLANTA,ATLANTA LTD
ATLASCYCL,ATLAS CYCLES HARYANA LTD
ATUL,ATUL LIMITED
ATULAUTO,ATUL AUTO LTD
AUBANK,AU SMALL FINANCE BANK LTD
AURDIS,AURANGABAD DISTILLERY LTD
AURIONPRO,AURIONPRO SOLUTIONS LTD
AUROPHARM,AUROBINDO PHARMA LTD
AUSOMENT,AUSOM ENTERPRISE LTD
AUTOAXLES,AUTOMOTIVE AXLES LIMITED
AUTOIND,AUTOLINE INDUSTRIES LTD
AUTOLITIN,AUTOLITE (INDIA) LIMITED
AVADHSUGA,AVADH SUGAR & ENERGY LTD
AVG,AVG LOGISTICS LTD
AVSL,AVSL INDUSTRIES LTD
AVTNPL,AVT NATURAL PRODUCTS LTD
AXISBANK,AXIS BANK LTD
AXISCADES,AXISCADES ENGINEERING TECHNO
AXISGOLD,AXIS GOLD ETF
AXISNIFTY,AXIS NIFTY ETF
AYMSYNTEX,AYM SYNTEX LTD
BAFNAPHAR,BAFNA PHARMACEUTICALS LTD
BAGFILMS,B.A.G. FILMS & MEDIA LTD
BAJAJ-AUT,BAJAJ AUTO LIMITED
BAJAJCORP,BAJAJ CORP LTD
BAJAJELEC,BAJAJ ELECTRICALS LIMITED
BAJAJFINS,BAJAJ FINSERV LTD
BAJAJHIND,BAJAJ HINDUSTHAN SUGAR LTD
BAJAJHLDN,BAJAJ HOLDINGS AND INVESTMEN
BAJFINANC,BAJAJ FINANCE LTD
BALAJITEL,BALAJI TELEFILMS LTD
BALAMINES,BALAJI AMINES LIMITED
BALAXI,BALAXI VENTURES LTD
BALKRISHN,BALKRISHNA PAPER MILLS LTD
BALKRISIN,BALKRISHNA INDUSTRIES LTD
BALLARPUR,BALLARPUR INDUSTRIES LTD
BALMLAWRI,BALMER LAWRIE & CO LTD
BALPHARMA,BAL PHARMA LIMITED
BALRAMCHI,BALRAMPUR CHINI MILLS LTD
BANARBEAD,BANARAS BEADS LTD
BANARISUG,BANNARI AMMAN SUGARS LTD
BANCOINDI,BANCO PRODUCTS (INDIA) LTD
BANDHANBN,BANDHAN BANK LTD
BANG,BANG OVERSEAS LIMITED
BANKA,BANKA BIOLOO LTD
BANKBAROD,BANK OF BARODA
BANKBEES,RELIANCE ETF BANK BEES
BANKINDIA,BANK OF INDIA
BANSAL,BANSAL MULTIFLEX LTD
BANSWRAS,BANSWARA SYNTEX LIMITED
BARTRONIC,BARTRONICS INDIA LTD
BASF,BASF INDIA LIMITED
BASML,BANNARI AMMAN SPINNING MILLS
BATAINDIA,BATA INDIA LTD
BAYERCROP,BAYER CROPSCIENCE LTD
BBL,BHARAT BIJLEE LIMITED
BBTC,BOMBAY BURMAH TRADING CORP
BCONCEPTS,BRAND CONCEPTS LTD
BDL,BHARAT DYNAMICS LTD
BEARDSELL,BEARDSELL LTD
BEDMUTHA,BEDMUTHA INDUSTRIES LTD
BEL,BHARAT ELECTRONICS LTD
BEML,BEML LIMITED
BEPL,BHANSALI ENGINEERNG POLYMER
BERGEPAIN,BERGER PAINTS INDIA LTD
BETA,BETA DRUGS LTD
BFINVEST,BF INVESTMENT LTD
BFUTILITI,BF UTILITIES LTD
BGLOBAL,BHARATIYA GLOBAL INFOMEDIA L
BGRENERGY,BGR ENERGY SYSTEMS LIMITED
BHAGERIA,BHAGERIA INDUSTRIES LTD
BHAGYANGR,BHAGYANAGAR INDIA LTD
BHAGYAPRO,BHAGYANAGAR PROPERTIES LTD
BHANDARI,BHANDARI HOSIERY EXPORTS
BHARATFIN,BHARAT FINANCIAL INCLUSION L
BHARATFOR,BHARAT FORGE LIMITED
BHARATGEA,BHARAT GEARS LIMITED
BHARATIDI,BHARATI DEFENCE AND INFRASTR
BHARATRAS,BHARAT RASAYAN LIMITED
BHARATWIR,BHARAT WIRE ROPES LTD
BHARTIART,BHARTI AIRTEL LIMITED
BHEL,BHARAT HEAVY ELECTRICALS
BHUSANSTL,BHUSHAN STEEL LTD
BIGBLOC,BIGBLOC CONSTRUCTION LTD
BIL,BHARTIYA INTERNATIONAL LTD
BILENERGY,BIL ENERGY SYSTEMS LTD
BILPOWER,BILPOWER LTD
BINANIIND,BINANI INDUSTRIES LTD
BINDALAGR,OSWAL GREENTECH LTD
BIOCON,BIOCON LTD
BIRLACABL,BIRLA CABLE LIMITED
BIRLACORP,BIRLA CORP LIMITED
BIRLAMONE,ADITYA BIRLA MONEY LTD
BKMINDST,BKM INDUSTRIES LTD
BLBLIMITE,BLB LTD
BLISSGVS,BLISS GVS PHARMA LIMITED
BLKASHYAP,B. L. KASHYAP AND SONS LTD
BLS,BLS INTERNATIONAL LTD
BLUEBLEND,BLUE BLENDS (INDIA) LTD
BLUECOAST,BLUE COAST HOTELS LTD
BLUEDART,BLUE DART EXPRESS LIMITED
BLUESTARC,BLUE STAR LIMITED
BODALCHEM,BODAL CHEMICALS LTD
BOHRA,BOHRA INDUSTRIES LTD
BOMDYEING,BOMBAY DYEING & MFG CO LTD
BOROSIL,BOROSIL GLASS WORKS LTD
BOSCHLTD,BOSCH LIMITED
BPCL,BHARAT PETROLEUM CORP LTD
BPL,BPL LTD
BRFL,BOMBAY RAYON FASHIONS LTD
BRIGADE,BRIGADE ENTERPRISES LIMITED
BRITANNIA,BRITANNIA INDUSTRIES LTD
BRNL,BHARAT ROAD NETWORK LTD
BROOKS,BROOKS LABORATORIES LTD
BSE,BSE LTD
BSELINFRA,BSEL INFRASTRUCTURE REALTY
BSHSL,BOMBAY SUPER HYBRID SEEDS LT
BSL,BSL LIMITED
BSLGOLDET,ADITYA BIRLA SL GOLD ETF
BSLNIFTY,ADITYA BIRLA SL NIFTY ETF
BURNPUR,BURNPUR CEMENT LIMITED
BUTTERFLY,BUTTERFLY GANDHIMATHI APPLIA
BVCL,BARAK VALLEY CEMENTS LIMITED
BYKE,THE BYKE HOSPITALITY LTD
CADILAHC,CADILA HEALTHCARE LTD
CADSYS,CADSYS INDIA LTD
CALSOFT,CALIFORNIA SOFTWARE CO LTD
CAMLINFIN,CAMLIN FINE SCIENCES LTD
CANBK,CANARA BANK
CANDC,C & C CONSTRUCTIONS LIMITED
CANFINHOM,CAN FIN HOMES LTD
CANTABIL,CANTABIL RETAIL INDIA LTD
CAPACITE,CAPACIT'E INFRAPROJECTS LTD
CAPF,CAPITAL FIRST LTD
CAPLIPOIN,CAPLIN POINT LABORATORIES
CAPTRUST,CAPITAL TRUST LTD
CARBORUNI,CARBORUNDUM UNIVERSAL LTD
CAREERP,CAREER POINT LTD
CARERATIN,CARE RATINGS LTD
CASTEXTEC,CASTEX TECHNOLOGIES LTD
CASTROLIN,CASTROL INDIA LTD
CCCL,CONSOLIDATED CONSTRUCTION CO
CCHHL,COUNTRY CLUB HOSPITALITY & H
CCL,CCL PRODUCTS INDIA LTD
CDSL,CENTRAL DEPOSITORY SERVICES
CEATLTD,CEAT LIMITED
CEBBCO,COMMERCIAL ENGINEERS & BODY
CELEBRITY,CELEBRITY FASHIONS LTD
CELESTIAL,CELESTIAL BIOLABS LTD
CENTENKA,CENTURY ENKA LIMITED
CENTEXT,CENTURY EXTRUSIONS LIMITED
CENTRALBK,CENTRAL BANK OF INDIA
CENTRUM,CENTRUM CAPITAL LTD
CENTUM,CENTUM ELECTRONICS LIMITED
CENTURYPL,CENTURY PLYBOARDS INDIA LTD
CENTURYTE,CENTURY TEXTILES & INDS LTD
CERA,CERA SANITARYWARE LTD
CEREBRAIN,CEREBRA INTEGRATED TECH LTD
CESC,CESC LIMITED
CGCL,CAPRI GLOBAL CAPITAL LTD
CGPOWER,CG POWER AND INDUSTRIAL SOLU
CHAMBLFER,CHAMBAL FERTILISERS & CHEM
CHEMFAB,CHEMFAB ALKALIS LTD
CHENNPETR,CHENNAI PETROLEUM CORP LTD
CHOLAFIN,CHOLAMANDALAM INVESTMENT AND
CHROMATIC,CHROMATIC INDIA LTD
CIGNITITE,CIGNITI TECHNOLOGIES LTD
CIMMCO,CIMMCO LTD
CINELINE,CINELINE INDIA LTD
CINEVISTA,CINEVISTA LTD
CIPLA,CIPLA LTD
CKPLEISUR,CKP LEISURE LTD
CKPPRODUC,CKP PRODUCTS LTD
CLEDUCATE,CL EDUCATE LTD
CLNINDIA,CLARIANT CHEMICALS (I) LTD
CMICABLES,CMI LIMITED
CMMIPL,CMM INFRAPROJECTS LTD
CNOVAPETR,CIL NOVA PETROCHEMICALS LTD
COALINDIA,COAL INDIA LTD
COCHINSHI,COCHIN SHIPYARD LTD
COFFEEDAY,COFFEE DAY ENTERPRISES LTD
COLPAL,COLGATE PALMOLIVE (INDIA)
COMPINFO,COMPUAGE INFOCOM LTD
COMPUSOFT,COMPUCOM SOFTWARE LIMITED
CONSOFINV,CONSOLIDATED FINVEST & HLDG
CONTI,CONTINENTAL SEEDS AND CHEMIC
CONTROLPR,CONTROL PRINT LTD
CORALFINA,CORAL INDIA FINANCE & HOUSIN
CORDSCABL,CORDS CABLE INDUSTRIES LTD
COROMANDE,COROMANDEL INTERNATIONAL LTD
CORPBANK,CORPORATION BANK
COSMOFILM,COSMO FILMS LIMITED
COUNCODOS,COUNTRY CONDO'S LTD
COXKINGS,COX AND KINGS LTD
CPSEETF,R*SHARES CPSE ETF
CREATIVE,CREATIVE PERIPHERALS AND DIS
CREATIVEY,CREATIVE EYE LTD
CREST,CREST VENTURES LTD
CRISIL,CRISIL LTD
CRMFGETF,CANARA ROBECO GOLD ETF
CROMPTON,CROMPTON GREAVES CONSUMER EL
CROWN,CROWN LIFTERS LTD
CTE,CAMBRIDGE TECHNOLOGY ENTERPR
CUB,CITY UNION BANK LTD
CUBEXTUB,CUBEX TUBINGS LIMITED
CUMMINSIN,CUMMINS INDIA LTD
CUPID,CUPID LTD
CURATECH,CURA TECHNOLOGIES LTD
CYBERMEDI,CYBER MEDIA INDIA LTD
CYBERTECH,CYBERTECH SYSTEMS & SOFTWARE
CYIENT,CYIENT LTD
DAAWAT,LT FOODS LTD
DABUR,DABUR INDIA LIMITED
DALMIABHA,DALMIA BHARAT LTD
DALMIASUG,DALMIA BHARAT SUGAR & INDUST
DAMODARIN,DAMODAR INDUSTRIES LTD
DATAMATIC,DATAMATICS GLOBAL SERVICES
DBCORP,D.B. CORP LIMITED
DBL,DILIP BUILDCON LTD
DBREALTY,DB REALTY LTD
DBSTOCKBR,DB INTL STOCK BROKERS LTD
DCAL,DISHMAN CARBOGEN AMCIS LIMITED
DCBBANK,DCB BANK LTD
DCM,DCM LIMITED
DCMSHRIRA,DCM SHRIRAM LTD
DCW,DCW LIMITED
DECCANCE,DECCAN CEMENTS LTD
DECOLIGHT,DECOLIGHT CERAMICS LIMITED
DEEPAKFER,DEEPAK FERTILISERS & PETRO
DEEPAKNTR,DEEPAK NITRITE LTD
DEEPIND,DEEP INDUSTRIES LTD
DELTACORP,DELTA CORP LTD
DELTAMAGN,DELTA MAGNETS LTD
DEN,DEN NETWORKS LTD
DENABANK,DENA BANK
DENORA,DE NORA INDIA LIMITED
DEVIT,DEV INFORMATION TECHNOLOGY L
DFMFOODS,DFM FOODS LTD
DHAMPURSU,DHAMPUR SUGAR MILLS LTD
DHANBANK,DHANLAXMI BANK LTD
DHANUKA,DHANUKA AGRITECH LTD
DHARSUGAR,DHARANI SUGARS & CHEMICALS
DHFL,DEWAN HOUSING FINANCE CORP
DHUNINV,DHUNSERI INVESTMENTS LTD
DIAMONDYD,PRATAAP SNACKS LTD
DIAPOWER,DIAMOND POWER INFRA LIMITED
DICIND,DIC INDIA LTD
DIGJAMLTD,DIGJAM LTD
DISHTV,DISH TV INDIA LTD
DIVISLAB,DIVI'S LABORATORIES LTD
DIXON,DIXON TECHNOLOGIES INDIA LTD
DLF,DLF LIMITED
DLINKINDI,D-LINK INDIA LTD
DMART,AVENUE SUPERMARTS LTD
DNAMEDIA,DILIGENT MEDIA CORP LTD
DOLLAR,DOLLAR INDUSTRIES LTD
DOLPHINOF,DOLPHIN OFFSHORE ENTERPRISES
DONEAR,DONEAR INDUSTRIES LTD
DPABHUSHA,D P ABHUSHAN LTD
DPL,DHUNSERI PETROCHEM LTD
DPSCLTD,DPSC LTD
DPWIRES,DP WIRES LTD
DQE,DQ ENTERTAINMENT INTL LTD
DREDGECOR,DREDGING CORP OF INDIA LTD
DRL,DHANUKA REALTY LTD
DRREDDY,DR. REDDY'S LABORATORIES
DSML,DEBOCK SALES & MKTG LTD
DSSL,DYNACONS SYSTEMS & SOLUTIONS
DTIL,DHUNSERI TEA & INDUSTRIES LT
DUCON,DUCON INFRATECHNOLGIES LTD
DWARKESH,DWARIKESH SUGAR INDUS LTD
DYNAMATEC,DYNAMATIC TECHNOLOGIES LTD
DYNPRO,DYNEMIC PRODUCTS LTD
E2E,E2E NETWORKS LTD
EASTSILK,EASTERN SILK INDUSTRIES LTD
EASUNREYR,EASUN REYROLLE LIMITED
EBANK,EDELWEISS ETF - NIFTY BANK
ECEIND,ECE INDUSTRIES LTD
ECLERX,ECLERX SERVICES LTD
EDELWEISS,EDELWEISS FINANCIAL SERVICES
EDL,EMPEE DISTILLERIES LIMITED
EDUCOMP,EDUCOMP SOLUTIONS LTD
EICHERMOT,EICHER MOTORS LTD
EIDPARRY,EID PARRY INDIA LTD
EIFFL,EURO INDIA FRESH FOODS LTD
EIHAHOTEL,EIH ASSOCIATED HOTELS
EIHOTEL,EIH LIMITED
EIMCOELEC,EIMCO ELECON INDIA LTD
EKC,EVEREST KANTO CYLINDER LTD
ELAND,E-LAND APPAREL LTD
ELECON,ELECON ENGINEERING CO LTD
ELECTCAST,ELECTROSTEEL CASTINGS LTD
ELECTHERM,ELECTROTHERM INDIA LTD
ELGIEQUIP,ELGI EQUIPMENTS LTD
ELGIRUBCO,ELGI RUBBER COMPANY LTD
EMAMIINFR,EMAMI INFRASTRUCTURE LTD
EMAMILTD,EMAMI LIMITED
EMCO,EMCO LIMITED
EMKAY,EMKAY GLOBAL FINANCIAL SERV
EMKAYTOOL,EMKAY TAPS & CUTTING TOOLS L
EMMBI,EMMBI INDUSTRIES LIMITED
ENDURANCE,ENDURANCE TECHNOLOGIES LTD
ENERGYDEV,ENERGY DEVELOPMENT CO
ENGINERSI,ENGINEERS INDIA LTD
ENIL,ENTERTAINMENT NETWORK INDIA
EON,EON ELECTRIC LTD
EQ30,EDELWEISS ETF-NIFTY QLTY 30
EQUITAS,EQUITAS HOLDINGS LTD/INDIA
ERIS,ERIS LIFESCIENCES LTD
EROSMEDIA,EROS INTERNATIONAL MEDIA LTD
ESABINDIA,ESAB INDIA LTD
ESCORTS,ESCORTS LTD
ESSARSHPN,ESSAR SHIPPING LTD
ESSDEE,ESS DEE ALUMINIUM LTD
ESSELPACK,ESSEL PROPACK LTD
ESTER,ESTER INDUSTRIES LTD
EUROCERA,EURO CERAMICS LTD
EUROMULTI,EURO MULTIVISION LTD
EUROTEXIN,EUROTEX INDS & EXPORTS LTD
EVEREADY,EVEREADY INDUSTRIES INDIA
EVERESTIN,EVEREST INDUSTRIES LTD
EXCEL,EXCEL REALTY N INFRA LTD
EXCELCROP,EXCEL CROP CARE LTD
EXCELINDU,EXCEL INDUSTRIES LTD
EXIDEIND,EXIDE INDUSTRIES LTD
FACT,FERTILISERS & CHEM TRAVANCR
FAIRCHEM,FAIRCHEM SPECIALITY LTD
FCL,FINEOTEX CHEMICAL LTD
FCONSUMER,FUTURE CONSUMER LTD
FCSSOFT,FCS SOFTWARE SOLUTIONS LTD
FDC,FDC LTD
FEDDERELE,FEDDERS ELECTRIC AND ENGINEE
FEDERALBN,FEDERAL BANK LTD
FEL,FUTURE ENTERPRISES LTD
FELDVR,FUTURE ENTERPRISES LTD-CL B
FELIX,FELIX INDUSTRIES LTD
FIEMIND,FIEM INDUSTRIES LTD
FINCABLES,FINOLEX CABLES LTD
FINPIPE,FINOLEX INDUSTRIES LTD
FIVECORE,FIVE CORE ELECTRONICS LTD
FLEXITUFF,FLEXITUFF INTERNATIONAL LTD
FLFL,FUTURE LIFESTYLE FASHIONS LT
FMGOETZE,FEDERAL-MOGUL GOETZE INDIA
FMNL,FUTURE MARKET NETWORKS LTD
FOCUS,FOCUS LIGHTING & FIXTURES LT
FORTIS,FORTIS HEALTHCARE LTD
FORTUNEFI,FORTUNE FINANCIAL SERV INDIA
FOSECOIND,FOSECO INDIA LTD
FOURTHDIM,FOURTH DIMENSION SOLUTIONS L
FRETAIL,FUTURE RETAIL LTD
FSC,FUTURE SUPPLY CHAIN SOLUTION
FSL,FIRSTSOURCE SOLUTIONS LTD
GABRIEL,GABRIEL INDIA LTD
GAEL,GUJARAT AMBUJA EXPORTS LTD
GAIL,GAIL INDIA LTD
GAL,GYSCOAL ALLOYS LIMITED
GALAXYSUR,GALAXY SURFACTANTS LTD
GALLANTT,GALLANTT METAL LTD
GALLISPAT,GALLANTT ISPAT LTD
GAMMNINFR,GAMMON INFRASTRUCTURE PROJEC
GANDHITUB,GANDHI SPECIAL TUBES LTD
GANECOS,GANESHA ECOSPHERE LTD
GANESHHOU,GANESH HOUSING CORP LTD
GANGESSEC,GANGES SECURITIES LTD
GARDENSIL,GARDEN SILK MILLS LTD
GARWALLRO,GARWARE WALL ROPES LIMITED
GATI,GATI LTD
GAYAPROJ,GAYATRI PROJECTS LTD
GDL,GATEWAY DISTRIPARKS LTD
GEECEE,GEE CEE VENTURES LTD
GEEKAYWIR,GEEKAY WIRES LTD
GEMINI,GEMINI COMMUNICATIONS LTD
GENESYS,GENESYS INTL CORP LTD
GENUSPAPE,GENUS PAPER & BOARD LTD
GENUSPOWE,GENUS POWER INFRASTRUCTURES
GEOJITFSL,GEOJIT FINANCIAL SERVICES LT
GEPIL,GE POWER INDIA LTD
GESHIP,GREAT EASTERN SHIPPING CO
GETD,GE T&D INDIA LTD
GHCL,GHCL LTD
GICHSGFIN,GIC HOUSING FINANCE LTD
GICL,GLOBE INTERNATIONAL CARRIERS
GICRE,GENERAL INS CORP OF INDIA
GILLANDER,GILLANDERS ARBUTHNOT & CO
GILLETTE,GILLETTE INDIA LTD
GINNIFILA,GINNI FILAMENTS LTD
GIPCL,GUJARAT INDS POWER CO LTD
GIRIRAJ,GIRIRAJ CIVIL DEVELOPERS LTD
GISOLUTIO,GI ENGINEERING SOLUTIONS LTD
GITANJALI,GITANJALI GEMS LTD
GKWLIMITE,GKW LTD
GLAXO,GLAXOSMITHKLINE PHARMACEUTIC
GLENMARK,GLENMARK PHARMACEUTICALS LTD
GLOBAL,GLOBAL EDUCATION LTD
GLOBALVEC,GLOBAL VECTRA HELICORP LTD
GLOBE,GLOBE TEXTILES INDIA LTD
GLOBOFFS,GLOBAL OFFSHORE SERVICES LTD
GLOBUSSPR,GLOBUS SPIRITS LIMITED
GMBREW,GM BREWERIES LTD
GMDCLTD,GUJARAT MINERAL DEV CORP LTD
GMMPFAUDL,GMM PFAUDLER LTD
GMRINFRA,GMR INFRASTRUCTURE LTD
GNA,GNA AXLES LTD
GNFC,GUJARAT NARMADA VALLEY FERT
GOACARBON,GOA CARBON LTD
GOCLCORP,GOCL CORP LTD
GODFRYPHL,GODFREY PHILLIPS INDIA LTD
GODHA,GODHA CABON&INSULATION LTD
GODREJAGR,GODREJ AGROVET LTD
GODREJCP,GODREJ CONSUMER PRODUCTS LTD
GODREJIND,GODREJ INDUSTRIES LTD
GODREJPRO,GODREJ PROPERTIES LTD
GOENKA,GOENKA DIAMOND & JEWELS LTD
GOKEX,GOKALDAS EXPORTS LTD
GOKUL,GOKUL REFOILS & SOLVENT LTD
GOKULAGRO,GOKUL AGRO RESOURCES LTD
GOLDBEES,RELIANCE ETF GOLD BEES
GOLDIAM,GOLDIAM INTERNATIONAL LTD
GOLDINFRA,GOLDSTONE INFRATECH LIMITED
GOLDSHARE,UTI GOLD EXCHANGE TRADED FND
GOLDSTAR,GOLDSTAR POWER LTD
GOLDTECH,GOLDSTONE TECHNOLOGIES LTD
GOODLUCK,GOODLUCK INDIA LTD
GPIL,GODAWARI POWER AND ISPAT LTD
GPPL,GUJARAT PIPAVAV PORT LTD
GPTINFRA,GPT INFRAPROJETCS LTD
GRANULES,GRANULES INDIA LTD
GRAPHITE,GRAPHITE INDIA LTD
GRASIM,GRASIM INDUSTRIES LTD
GRAVITA,GRAVITA INDIA LTD
GREAVESCO,GREAVES COTTON LTD
GREENLAM,GREENLAM INDUSTRIES LIMITED
GREENPLY,GREENPLY INDUSTRIES LTD
GREENPOWE,ORIENT GREEN POWER CO LTD
GRETEX,GRETEX INDUSTRIES LTD
GRINDWELL,GRINDWELL NORTON LIMITED
GROBTEA,GROB TEA CO LTD/ THE
GRPLTD,GRP LTD
GRUH,GRUH FINANCE LTD
GSCLCEMEN,GUJARAT SIDHEE CEMENT LTD
GSFC,GUJARAT STATE FERT & CHEMICA
GSKCONS,GLAXOSMITHKLINE CONSUMER HEA
GSPL,GUJARAT STATE PETRONET LTD
GSS,GSS INFOTECH LTD
GTL,GTL LTD
GTLINFRA,GTL INFRASTRUCTURE LTD
GTNIND,GTN INDUSTRIES LTD
GTNTEX,GTN TEXTILES LIMITED
GTPL,GTPL HATHWAY LTD
GUFICBIO,GUFIC BIOSCIENCES LIMITED
GUJALKALI,GUJARAT ALKALIES & CHEMICALS
GUJAPOLLO,GUJARAT APOLLO INDUSTRIES LT
GUJFLUORO,GUJARAT FLUOROCHEMICALS LTD
GUJGASLTD,GUJARAT GAS LTD
GULFOILLU,GULF OIL LUBRICANTS INDIA LT
GULFPETRO,GP PETROLEUMS LTD
GULPOLY,GULSHAN POLYOLS LTD
GVKPIL,GVK POWER & INFRASTRUCTURE
HAL,HINDUSTAN AERONAUTICS LTD
HANUNG,HANUNG TOYS & TEXTILES LTD
HARITASEA,HARITA SEATING SYSTEMS LTD
HARRMALAY,HARRISONS MALAYALAM LIMITED
HATHWAY,HATHWAY CABLE AND DATACOM
HATSUN,HATSUN AGRO PRODUCTS LTD
HAVELLS,HAVELLS INDIA LTD
HBLPOWER,HBL POWER SYSTEMS LTD
HCC,HINDUSTAN CONSTRUCTION CO
HCG,HEALTHCARE GLOBAL ENTERPRISE
HCL-INSYS,HCL INFOSYSTEMS LTD
HCLTECH,HCL TECHNOLOGIES LTD
HDFC,HOUSING DEVELOPMENT FINANCE
HDFCBANK,HDFC BANK LTD
HDFCLIFE,HDFC STANDARD LIFE INSURANCE
HDFCMFGET,HDFC GOLD ETF
HDFCNIFET,HDFC NIFTY ETF
HDFCSENET,HDFC SENSEX ETF
HDIL,HOUSING DEVELOPMENT & INFRAS
HEG,H.E.G. LIMITED
HEIDELBER,HEIDELBERGCEMENT INDIA LTD
HERCULES,HERCULES HOISTS LIMITED
HERITGFOO,HERITAGE FOODS LTD
HEROMOTOC,HERO MOTOCORP LIMITED
HESTERBIO,HESTER BIOSCIENCES LIMITED
HEXATRADE,HEXA TRADEX LTD
HEXAWARE,HEXAWARE TECHNOLOGIES LTD
HFCL,HIMACHAL FUTURISTIC COMMUN
HGINFRA,HG INFRA ENGINEERING LTD
HGS,HINDUJA GLOBAL SOLUTIONS LTD
HIGHGROUN,HIGH GROUND ENTERPRISE LTD
HIKAL,HIKAL LTD
HIL,HIL LTD
HILTON,HILTON METAL FORGING LTD
HIMATSEID,HIMATSINGKA SEIDE LIMITED
HINDALCO,HINDALCO INDUSTRIES LIMITED
HINDCOMPO,HINDUSTAN COMPOSITES LTD
HINDCON,HINDCON CHEMICALS LTD
HINDCOPPE,HINDUSTAN COPPER LIMITED
HINDDORRO,HINDUSTAN DORR-OLIVER LTD
HINDMOTOR,HINDUSTAN MOTORS LTD
HINDNATGL,HINDUSTHAN NATL GLASS & INDU
HINDOILEX,HINDUSTAN OIL EXPLORATION CO
HINDPETRO,HINDUSTAN PETROLEUM CORP
HINDSYNTE,HINDUSTAN SYNTEX LTD
HINDUJAVE,HINDUJA VENTURES LIMITED
HINDUNILV,HINDUSTAN UNILEVER LTD
HINDZINC,HINDUSTAN ZINC LTD
HIRECT,HIND RECTIFIERS LIMITED
HISARMETA,HISAR METAL INDUSTRIES LTD
HITECH,HI-TECH PIPES LTD
HITECHCOR,HITECH CORP LTD
HITECHGEA,HI-TECH GEARS LTD/THE
HMT,HMT LIMITED
HMVL,HINDUSTAN MEDIA VENTURES LTD
HNGSNGBEE,RELIANCE ETF HANG SENG BEES
HONAUT,HONEYWELL AUTOMATION INDIA
HONDAPOWE,HONDA SIEL POWER PRODUCTS
HOTELEELA,HOTEL LEELAVENTURE LTD
HOTELRUGB,HOTEL RUGBY LTD
HOVS,HOV SERVICES LTD
HPL,HPL ELECTRIC & POWER LTD
HSCL,HIMADRI SPECIALITY CHEMICAL
HSIL,HSIL LTD
HTMEDIA,HT MEDIA LTD
HUBTOWN,HUBTOWN LIMITED
HUDCO,HOUSING & URBAN DEV CORP LTD
HUSYSLTD,HUSYS CONSULTING LTD
IBREALEST,INDIABULLS REAL ESTATE LTD
IBULHSGFI,INDIABULLS HOUSING FINANCE L
IBULISL,INDIABULLS INTEGRATED SERVICES
IBVENTURE,INDIABULLS VENTURES LTD
ICEMAKE,ICE MAKE REFRIGERATION LTD
ICICI500,ICICI PRU S&P BSE 500 ETF
ICICIB22,BHARAT 22 ETF
ICICIBANK,ICICI BANK LTD
ICICIGI,ICICI LOMBARD GENERAL INSURA
ICICIGOLD,ICICI PRUDENTIAL GOLD ETF
ICICILOVO,ICI-NIFTY LOWVOL 30 ETF
ICICIMCAP,ICICI PRU MIDCAP SEL ETF
ICICINF10,ICICI PRU NIFTY 100 ETF
ICICINIFT,ICICI PRUDENTIAL NIFTY ETF
ICICINV20,ICICI PRUD NV20 ETF
ICICIPRUL,ICICI PRUDENTIAL LIFE INSURA
ICICISENS,ICICI PRUDENTIAL SENSEX ETF
ICIL,INDO COUNT INDUSTRIES LTD
ICRA,ICRA LIMITED
ICSA,ICSA INDIA LTD
IDBI,IDBI BANK LIMITED
IDBIGOLD,IDBI GOLD ETF
IDEA,IDEA CELLULAR LTD.
IDFC,IDFC LTD
IDFCBANK,IDFC BANK LTD
IDFNIFTYE,IDFC NIFTY ETF
IEX,INDIAN ENERGY EXCHANGE LTD
IFBAGRO,IFB AGRO INDUSTRIES LTD
IFBIND,IFB INDUSTRIES LIMITED
IFCI,IFCI LIMITED
IFGLEXPOR,IFGL REFRACTORIES LTD
IGARASHI,IGARASHI MOTORS INDIA LTD
IGL,INDRAPRASTHA GAS LTD
IGPL,I.G. PETROCHEMICALS LTD
IIFL,IIFL HOLDINGS LTD
IITL,INDUSTRIAL INVESTMENT TRUST
ILFSENGG,IL&FS ENGINEERING AND CONSTR
ILFSTRANS,IL&FS TRANSPORTATION NETWORK
IMFA,INDIAN METALS & FERRO ALLOY
IMPAL,INDIA MOTOR PARTS & ACCESSOR
IMPEXFERR,IMPEX FERRO TECH LTD
INDBANK,INDBANK MERCHANT BANKING SER
INDHOTEL,INDIAN HOTELS CO LIMITED
INDIACEM,INDIA CEMENTS LIMITED
INDIAGLYC,INDIA GLYCOLS LTD
INDIANB,INDIAN BANK
INDIANCAR,INDIAN CARD CLOTHING CO LTD
INDIANHUM,INDIAN HUME PIPE CO LIMITED
INDIGO,INTERGLOBE AVIATION LTD
INDIGRID,INDIA GRID TRUST
INDINFR,INDINFRAVIT TRUST
INDLMETER,IMP POWERS LIMITED
INDNIPPON,INDIA NIPPON ELECTRICALS LTD
INDOCO,INDOCO REMEDIES LTD
INDORAMA,INDO RAMA SYNTHETICS (I)
INDOSOLAR,INDOSOLAR LIMITED
INDOSTAR,INDOSTAR CAPITAL FINANCE LTD
INDOTECH,INDO TECH TRANSFORMERS LTD
INDOTHAI,INDO THAI SECURITIES LTD
INDOWIND,INDOWIND ENERGY LTD
INDRAMEDC,INDRAPRASTHA MEDICAL CORP LT
INDSWFTLA,IND-SWIFT LABORATORIES LTD
INDSWFTLT,IND SWIFT LTD
INDTERRAI,INDIAN TERRAIN FASHIONS LTD
INDUSINDB,INDUSIND BANK LIMITED
INEOSSTYR,INEOS STYROLUTION INDIA LTD
INFIBEAM,INFIBEAM INCORPORATION LTD
INFINITE,INFINITE COMPUTER SOLUTIONS
INFOBEAN,INFOBEANS TECHNOLOGIES LTD
INFRABEES,RELIANCE ETF INFRA BEES
INFRATEL,BHARTI INFRATEL LTD
INFY,INFOSYS LTD
INGERRAND,INGERSOLL-RAND INDIA LTD
INNOVANA,INNOVANA THINKLABS LTD
INNOVATIV,INNOVATIVE TYRES & TUBES LTD
INOXLEISU,INOX LEISURE LTD
INOXWIND,INOX WIND LTD
INSECTICI,INSECTICIDES INDIA LTD
INTEGRA,INTEGRA GARMENTS AND TEXTILE
INTELLECT,INTELLECT DESIGN ARENA LTD
INTENTECH,INTENSE TECHNOLOGIES LTD
INVENTURE,INVENTURE GROWTH & SECURITIE
IOB,INDIAN OVERSEAS BANK
IOC,INDIAN OIL CORPORATION LTD
IOLCP,IOL CHEMICALS AND PHARMA LTD
IPAPPM,INTERNATIONAL PAPER APPM LTD
IPCALAB,IPCA LABORATORIES LIMITED
IRB,IRB INFRASTRUCTURE DEVELOPER
IRBINVIT,IRB INVIT FUND
ISEC,ICICI SECURITIES LTD
ISFT,INTRASOFT TECHNOLOGIES LTD
ISMTLTD,ISMT LTD
ITC,ITC LTD
ITDC,INDIA TOURISM DEVELOPMENT
ITDCEM,ITD CEMENTATION INDIA LTD
ITI,ITI LIMITED
IVC,IL & FS INVESTMENT MANAGERS
IVP,IVP LIMITED
IVRCLINFR,IVRCL LTD
IVZINGOLD,INVESCO INDIA GOLD ETF
IVZINNIFT,INVESCO INDIA NIFTY ETF
IZMO,IZMO LTD
JAGRAN,JAGRAN PRAKASHAN LIMITED
JAGSNPHAR,JAGSONPAL PHARMACEUTICALS
JAIBALAJI,JAI BALAJI INDUSTRIES LTD
JAICORPLT,JAI CORPORATION LTD
JAIHINDPR,JAIHIND PROJECTS LIMITED
JAINSTUDI,JAIN STUDIOS LTD
JALAN,JALAN TRANSOLUTIONS INDIA LT
JAMNAAUTO,JAMNA AUTO INDUSTRIES LTD
JASH,JASH ENGINEERING LTD
JAYAGROGN,JAYANT AGRO-ORGANICS LTD
JAYBARMAR,JAY BHARAT MARUTI LIMITED
JAYNECOIN,JAYASWAL NECO INDUSTRIES LTD
JAYSREETE,JAYSHREE TEA & INDUSTRIES
JBCHEPHAR,J.B. CHEMICALS & PHARMA LTD
JBFIND,JBF INDUSTRIES LIMITED
JBMA,JBM AUTO LTD
JCHAC,JOHNSON CONTROLS HITACHI AIR
JETAIRWAY,JET AIRWAYS INDIA LTD
JETFREIGH,JET FREIGHT LOGISTICS LTD
JETKNIT,JET KNITWEARS LTD
JHS,JHS SVENDGAARD LABORATORIES
JINDALPHO,JINDAL PHOTO LIMITED
JINDALPOL,JINDAL POLY FILMS LTD
JINDALSAW,JINDAL SAW LTD
JINDALSTE,JINDAL STEEL & POWER LTD
JINDCOT,JINDAL COTEX LIMITED
JINDRILL,JINDAL DRILLING & INDUS LTD
JINDWORLD,JINDAL WORLDWIDE LTD
JISLDVREQ,JAIN IRRIGATION SYSTEMS-DVR
JISLJALEQ,JAIN IRRIGATION SYSTEMS LTD
JITFINFRA,JITF INFRALOGISTICS LTD
JKBANK,JAMMU & KASHMIR BANK LTD
JKCEMENT,JK CEMENT LTD
JKIL,J.KUMAR INFRAPROJECTS LTD
JKLAKSHMI,J.K. LAKSHMI CEMENT LIMITED
JKPAPER,JK PAPER LTD
JKTYRE,JK TYRE & INDUSTRIES LTD
JMA,JULLUNDUR MOTOR AGENCY DELHI
JMCPROJEC,JMC PROJECTS (INDIA) LIMITED
JMFINANCI,JM FINANCIAL LTD
JMTAUTOLT,JMT AUTO LTD
JOCIL,JOCIL LTD
JPASSOCIA,JAIPRAKASH ASSOCIATES LTD
JPINFRATE,JAYPEE INFRATECH LTD
JPOLYINVS,JINDAL POLY INVESTMENTS AND
JPPOWER,JAIPRAKASH POWER VENTURES LT
JSL,JINDAL STAINLESS LTD
JSLHISAR,JINDAL STAINLESS HISAR LTD
JSWENERGY,JSW ENERGY LIMITED
JSWHL,JSW HOLDINGS LTD
JSWSTEEL,JSW STEEL LTD
JTEKTINDI,JTEKT INDIA LIMITED
JUBILANT,JUBILANT LIFE SCIENCES LTD.
JUBLFOOD,JUBILANT FOODWORKS LTD
JUBLINDS,JUBILANT INDUSTRIES LTD
JUNIORBEE,RELIANCE ETF JUNIOR BEES
JUSTDIAL,JUST DIAL LTD
JVLAGRO,JVL AGRO INDUSTRIES LTD
JYOTHYLAB,JYOTHY LABORATORIES LTD
JYOTISTRU,JYOTI STRUCTURES LIMITED
KABRAEXTR,KABRA EXTRUSIONS TECHNIK LTD
KAJARIACE,KAJARIA CERAMICS LIMITED
KAKATCEM,KAKATIYA CEMENT SUGAR & IND
KALPATPOW,KALPATARU POWER TRANSMISSION
KALYANIFR,KALYANI FORGE LIMITED
KAMATHOTE,KAMAT HOTELS (INDIA)
KAMDHENU,KAMDHENU LTD
KANANIIND,KANANI INDUSTRIES LTD
KANORICHE,KANORIA CHEMICALS & INDS
KANSAINER,KANSAI NEROLAC PAINTS LTD
KAPSTON,KAPSTON FACILITIES MANAGEMEN
KARDA,KARDA CONSTRUCTIONS LTD
KARMAENG,KARMA ENERGY LTD
KARURVYSY,KARUR VYSYA BANK LTD
KAUSHALYA,KAUSHALYA INFRASTRUCTURE DEV
KAVVERITE,KAVVERI TELECOM PRODUCTS LTD
KAYA,KAYA LTD
KCP,KCP LTD
KCPSUGIND,KCP SUGAR & INDUSTRIES CORP
KDDL,KDDL LTD
KEC,KEC INTERNATIONAL LTD
KECL,KIRLOSKAR ELECTRIC CO LTD
KEERTI,KEERTI KNOWLEDGE & SKILLS LT
KEI,KEI INDUSTRIES LIMITED
KELLTONTE,KELLTON TECH SOLUTIONS LTD
KERNEX,KERNEX MICROSYSTEMS (I) LTD
KESARENT,KESAR ENTERPRISES LIMITED
KESORAMIN,KESORAM INDUSTRIES LIMITED
KEYCORPSE,KEYNOTE CORPORATE SERVICES
KGL,KARUTURI GLOBAL LTD
KHADIM,KHADIM INDIA LTD
KHAITANLT,KHAITAN INDIA LIMITED
KHANDSE,KHANDWALA SECURITIES LTD
KICL,KALYANI INVESTMENT CO LTD
KILITCH,KILITCH DRUGS (INDIA) LTD
KINGFA,KINGFA SCIENCE & TECHNOLOGY
KIOCL,KIOCL LTD
KIRIINDUS,KIRI INDUSTRIES LIMITED
KIRLOSBRO,KIRLOSKAR BROTHERS LTD
KIRLOSENG,KIRLOSKAR OIL ENGINES LTD
KIRLOSIND,KIRLOSKAR INDUSTRIES LTD
KITEX,KITEX GARMENTS LIMITED
KKCL,KEWAL KIRAN CLOTHING LTD
KKVAPOW,KKV AGRO POWERS LTD
KMSUGAR,KM SUGAR MILLS LTD
KNRCON,KNR CONSTRUCTIONS LTD
KOHINOOR,KOHINOOR FOODS LIMITED
KOKUYOCML,KOKUYO CAMLIN LIMITED
KOLTEPATI,KOLTE-PATIL DEVELOPERS LTD
KOPRAN,KOPRAN LIMITED
KOTAKBANK,KOTAK MAHINDRA BANK LTD
KOTAKBKET,KOTAK BANKING ETF
KOTAKGOLD,KOTAK GOLD ETF
KOTAKNIFT,KOTAK NIFTY 50
KOTAKNV20,KOTAK NV 20 ETF
KOTAKPSUB,KOTAK PSU BANK ETF
KOTARISUG,KOTHARI SUGARS & CHEMICALS
KOTHARIPE,KOTHARI PETROCHEMICALS LTD
KOTHARIPR,KOTHARI PRODUCTS LTD
KPIT,KPIT TECHNOLOGIES LTD
KPRMILL,KPR MILL LTD
KRBL,KRBL LIMITED
KRIDHANIN,KRIDHAN INFRA LTD
KRISHANA,KRISHANA PHOSCHEM LTD
KSBPUMPS,KSB PUMPS LIMITED
KSCL,KAVERI SEED CO LTD
KSERASERA,KSS LTD
KSK,KSK ENERGY VENTURES LIMITED
KSL,KALYANI STEELS LTD
KTIL,KESAR TERMINALS & INFRASTRUC
KTKBANK,KARNATAKA BANK LTD
KWALITY,KWALITY LTD
LAKPRE,LAKSHMI PRECISION SCREWS
LAKSHMIEF,LAKSHMI ENERGY & FOODS LTD
LAKSHVILA,LAKSHMI VILAS BANK LTD
LALPATHLA,DR LAL PATHLABS LTD
LAMBODHAR,LAMBODHARA TEXTILE LTD
LAOPALA,LA OPALA RG LTD
LASA,LASA SUPERGENERICS LTD
LATTEYS,LATTEYS INDUSTRIES LTD
LAURUSLAB,LAURUS LABS LTD
LAXMICOT,LAXMI COTSPIN LTD
LAXMIMACH,LAKSHMI MACHINE WORKS LTD
LEEL,LEEL ELECTRICALS LTD
LEMONTREE,LEMON TREE HOTELS LTD
LEXUS,LEXUS GRANITO INDIA LTD
LFIC,LAKSHMI FINANCE & INDUSTRIAL
LGBBROSLT,L.G. BALAKRISHNAN & BROS LTD
LIBAS,LIBAS DESIGNS LTD
LIBERTSHO,LIBERTY SHOES LIMITED
LICHSGFIN,LIC HOUSING FINANCE LTD
LICNETFGS,LIC MF G-SEC LONG TERM ETF
LICNETFN5,LIC MF ETF-NIFTY 50
LICNETFSE,LIC MF ETF-SENSEX
LICNFNHGP,LIC MF ETF-NIFTY 100
LINCOLN,LINCOLN PHARMACEUTICALS LTD
LINCPEN,LINC PEN & PLASTICS LTD
LINDEINDI,LINDE INDIA LTD
LIQUIDBEE,RELIANCE ETF LIQUID BEES
LIQUIDETF,DSP BLACKROCK LIQUID ETF
LITL,LANCO INFRATECH LTD
LOKESHMAC,LOKESH MACHINES LTD
LOTUSEYE,LOTUS EYE HOSPITAL AND INSTI
LOVABLE,LOVABLE LINGERIE LTD
LPDC,LANDMARK PROPERTY DEV CO LTD
LSIL,LLOYDS STEELS INDUSTRIES LTD
LT,LARSEN & TOUBRO LIMITED
LTFH,L&T FINANCE HOLDINGS LTD
LTI,LARSEN & TOUBRO INFOTECH LTD
LTTS,L&T TECHNOLOGY SERVICES LTD
LUMAXIND,LUMAX INDUSTRIES LIMITED
LUMAXTECH,LUMAX AUTO TECHNOLOGIES LTD
LUPIN,LUPIN LTD
LUXIND,LUX INDUSTRIES LTD
LYCOS,LYCOS INTERNET LTD
LYKALABS,LYKA LABS LIMITED
LYPSAGEMS,LYPSA GEMS & JEWELLERY LTD
M100,MOTILAL OSWAL MIDCAP 100
M50,MOTILAL OSWAL MOST SHARES 50
MAANALU,MAAN ALUMINIUM LTD
MACPOWER,MACPOWER CNC MACHINES LTD
MADHAV,MADHAV GRANITE & REALTY LTD
MADHUCON,MADHUCON PROJECTS LIMITED
MADRASFER,MADRAS FERTILIZERS LTD
MAGADSUGA,MAGADH SUGAR & ENERGY LTD
MAGMA,MAGMA FINCORP LTD
MAGNUM,MAGNUM VENTURES LIMITED
MAHABANK,BANK OF MAHARASHTRA
MAHASTEEL,MAHAMAYA STEEL INDUSTRIES
MAHESHWAR,MAHESHWARI LOGISTICS LTD
MAHICKRA,MAHICKRA CHEMICALS LTD
MAHINDCIE,MAHINDRA CIE AUTOMOTIVE LTD
MAHLIFE,MAHINDRA LIFESPACE DEVELOPER
MAHLOG,MAHINDRA LOGISTICS LTD
MAHSCOOTE,MAHARASHTRA SCOOTERS LTD
MAHSEAMLE,MAHARASHTRA SEAMLESS LTD
MAITHANAL,MAITHAN ALLOYS LTD
MAJESCO,MAJESCO LTD
MALUPAPER,MALU PAPER MILLS LIMITED
MALWACOTT,MALWA COTTON SPINNING MILLS
MANAKALUC,MANAKSIA ALUMINIUM CO LTD
MANAKCOAT,MANAKSIA COATED METALS & IND
MANAKSIA,MANAKSIA LIMITED
MANAKSTEE,MANAKSIA STEELS LTD
MANALIPET,MANALI PETROCHEMICALS LTD
MANAPPURA,MANAPPURAM FINANCE LTD
MANAV,MANAV INFRA PROJECTS LTD
MANDHANA,MANDHANA INDUSTRIES LTD
MANGALAM,MANGALAM DRUGS AND ORGANICS
MANGCHEFE,MANGALORE CHEMICALS & FERT
MANGLMCEM,MANGALAM CEMENT LIMITED
MANGTIMBE,MANGALAM TIMBER PRODUCTS LTD
MANINDS,MAN INDUSTRIES (INDIA) LTD
MANINFRA,MAN INFRACONSTRUCTION LTD
MANPASAND,MANPASAND BEVERAGES LTD
MANUGRAPH,MANUGRAPH INDIA LTD
MARALOVER,MARAL OVERSEAS LIMITED
MARATHON,MARATHON NEXTGEN REALTY LTD
MARICO,MARICO LIMITED
MARKSANS,MARKSANS PHARMA LIMITED
MARUTI,MARUTI SUZUKI INDIA LTD
MASFIN,MAS FINANCIAL SERVICES LTD
MASTEK,MASTEK LIMITED
MATRIMONY,MATRIMONY.COM LTD
MAWANASUG,MAWANA SUGARS LTD
MAXINDIA,MAX INDIA LTD-NEW SPUN OFF
MAXVIL,MAX VENTURES &INDUSTRIES LTD
MAYURUNIQ,MAYUR UNIQUOTERS LTD
MAZDA,MAZDA LTD
MBAPL,MADHYA BHARAT AGRO PRODUCTS
MBECL,MCNALLY BHARAT ENGINEERING
MBLINFRA,MBL INFRASTRUCTURES LIMITED
MCDHOLDIN,MCDOWELL HOLDINGS LTD
MCL,MADHAV COPPER LTD
MCLEODRUS,MCLEOD RUSSEL INDIA LIMITED
MCX,MULTI COMMODITY EXCH INDIA
MDL,MARVEL DECOR LTD
MEGASOFT,MEGASOFT LTD
MEGH,MEGHMANI ORGANICS LTD
MELSTAR,MELSTAR INFORMATION TECH LTD
MENONBE,MENON BEARINGS LTD
MEP,MEP INFRASTRUCTURE DVLPRS LT
MERCATOR,MERCATOR LTD
MERCK,MERCK LTD
METALFORG,METALYST FORGINGS LTD
METKORE,METKORE ALLOYS INDUSTRIES LT
MFSL,MAX FINANCIAL SERVICES LTD
MGL,MAHANAGAR GAS LTD
MHHL,MOHINI HEALTH & HYGIENE LTD
MHRIL,MAHINDRA HOLIDAYS & RESORTS
MIC,MIC ELECTRONICS LIMITED
MIDHANI,MISHRA DHATU NIGAM LTD
MILTON,MILTON INDUSTRIES LTD
MINDACORP,MINDA CORP LTD
MINDAIND,MINDA INDUSTRIES LTD
MINDTECK,MINDTECK (INDIA) LIMITED
MINDTREE,MINDTREE LIMITED
MIRCELECT,MIRC ELECTRONICS LIMITED
MIRZAINT,MIRZA INTERNATIONAL LTD
MITCON,MITCON CONSULTANCY & ENGINEE
MITTAL,MITTAL LIFE STYLE LTD
MKPL,M K PROTEINS LTD
MM,MAHINDRA & MAHINDRA LIMITED
MMFIN,MAHINDRA & MAHINDRA FIN SECS
MMFL,M.M. FORGINGS LTD
MMP,MMP INDUSTRIES LTD
MMTC,MMTC LTD
MOHITIND,MOHIT INDUSTRIES LTD
MOHOTAIND,MOHOTA INDUSTRIES LTD
MOIL,MOIL LTD
MOKSH,MOKSH ORNAMENTS LTD
MOLDTECH,MOLD-TEK TECHNOLOGIES LTD
MOLDTKPAC,MOLD-TEK PACKAGING LTD
MONNETISP,MONNET ISPAT & ENERGY LTD
MONSANTO,MONSANTO INDIA LIMITED
MONTECARL,MONTE CARLO FASHIONS LTD
MORARJEE,MORARJEE TEXTILES LTD
MOREPENLA,MOREPEN LABORATORIES LTD
MOSERBAER,MOSER BAER INDIA LTD
MOTHERSUM,MOTHERSON SUMI SYSTEMS LTD
MOTILALOF,MOTILAL OSWAL FINANCIAL SERV
MOTOGENFI,MOTOR & GENERAL FINANCE LTD
MPHASIS,MPHASIS LIMITED
MPSLTD,MPS LTD
MPTODAY,MADHYA PRADESH TODAY MEDIA L
MRF,MRF LIMITED
MRPL,MANGALORE REFINERY & PETRO
MSPL,MSP STEEL & POWER LTD
MTEDUCARE,MT EDUCARE LTD
MTNL,MAHANAGAR TELEPHONE NIGAM
MUKANDENG,MUKAND ENGINEERS LIMITED
MUKANDLTD,MUKAND LIMITED
MUKTAARTS,MUKTA ARTS LTD
MUNJALAU,MUNJAL AUTO INDUSTRIES LTD
MUNJALSHO,MUNJAL SHOWA LIMITED
MURUDCERA,MURUDESHWAR CERAMICS LTD.
MUTHOOTCA,MUTHOOT CAPITAL SERVICES LTD
MUTHOOTFI,MUTHOOT FINANCE LTD
MVL,MVL LTD
N100,MOTILAL OSWAL MOST-NASDA-100
NACLIND,NACL INDUSTRIES LTD
NAGAFERT,NAGARJUNA FERTILIZERS & CHEM
NAGAROIL,NAGARJUNA OIL REFINERY LTD
NAGREEKCA,NAGREEKA CAPITAL & INFRASTRU
NAGREEKEX,NAGREEKA EXPORTS LIMITED
NAHARCAP,NAHAR CAPITAL AND FIN SVCS
NAHARINDU,NAHAR INDUSTRIAL ENTERPRISES
NAHARPOLY,NAHAR POLY FILMS LTD
NAHARSPIN,NAHAR SPINNING MILLS LTD
NAKODA,NAKODA LTD
NANDANI,NANDANI CREATION LTD
NARMADA,NARMADA AGROBASE LTD
NATCOPHAR,NATCO PHARMA LTD
NATHBIOGE,NATH BIO-GENES INDIA LTD
NATIONALU,NATIONAL ALUMINIUM CO LTD
NATNLSTEE,NATIONAL STEEL & AGRO INDUST
NAUKRI,INFO EDGE INDIA LTD
NAVINFLUO,NAVIN FLUORINE INTERNATIONAL
NAVKARCOR,NAVKAR CORP LTD
NAVNETEDU,NAVNEET EDUCATION LTD
NBCC,NBCC INDIA LTD
NBIFIN,NBI INDUSTRIAL FINANCE CO LT
NBVENTURE,NAVA BHARAT VENTURES LIMITED
NCC,NCC LTD
NCLIND,NCL INDUSTRIES LIMITED
NDGL,NAGA DHUNSERI GROUP LTD
NDL,NANDAN DENIM LTD
NDTV,NEW DELHI TELEVISION LTD
NECCLTD,NORTH EASTERN CARRYING CORP
NECLIFE,NECTAR LIFESCIENCES LTD
NELCAST,NELCAST LTD
NELCO,NELCO LIMITED
NESCO,NESCO LTD
NESTLEIND,NESTLE INDIA LIMITED
NETWORK18,NETWORK 18 MEDIA & INVTS LTD
NEULANDLA,NEULAND LABORATORIES LIMITED
NEWGEN,NEWGEN SOFTWARE TECHNOLOGIES
NEXTMEDIA,NEXT MEDIAWORKS LTD
NFL,NATIONAL FERTILIZERS LTD
NH,NARAYANA HRUDAYALAYA LTD
NHPC,NHPC LTD
NIACL,NEW INDIA ASSURANCE CO LTD/T
NIBL,NRB INDUSTRIAL BEARINGS LTD
NIFTYBEES,RELIANCE ETF NIFTY BEES
NIFTYEES,EDELWEISS ETF - NIFTY 50
NIITLTD,NIIT LIMITED
NIITTECH,NIIT TECHNOLOGIES LTD
NILAINFRA,NILA INFRASTRUCTURE LTD
NILKAMAL,NILKAMAL LIMITED
NIPPOBATR,INDO-NATIONAL LTD
NITCO,NITCO LTD
NITESHEST,NITESH ESTATES LTD
NITINFIRE,NITIN FIRE PROTECTION INDS
NITINSPIN,NITIN SPINNERS LTD
NITIRAJ,NITIRAJ ENGINEERS LTD
NKIND,NK INDUSTRIES LTD
NLCINDIA,NLC INDIA LTD
NMDC,NMDC LIMITED
NOCIL,NOCIL LIMITED
NOIDATOLL,NOIDA TOLL BRIDGE CO LTD
NORBTEAEX,NORBEN TEA & EXPORTS
NRAIL,N.R. AGARWAL INDUSTRIES LTD
NRBBEARIN,NRB BEARINGS LIMITED
NSIL,NALWA SONS INVESTMENTS LTD
NTL,NEUEON TOWERS LTD
NTPC,NTPC LIMITED
NUCLEUS,NUCLEUS SOFTWARE EXPORTS LTD
NUTEK,NU TEK INDIA LTD
OBEROIRLT,OBEROI REALTY LTD
OCCL,ORIENTAL CARBON & CHEMICALS
OCL,OCL INDIA LIMITED
OFSS,ORACLE FINANCIAL SERVICES
OIL,OIL INDIA LTD
OILCOUNTU,OIL COUNTRY TUBULAR LIMITED
OISL,OCL IRON AND STEEL LTD
OMAXAUTO,OMAX AUTOS LIMITED
OMAXE,OMAXE LIMITED
OMFURN,OMFURN INDIA LTD
OMKARCHEM,OMKAR SPECIALITY CHEMICALS L
OMMETALS,OM METALS INFRAPROJECTS LTD
ONELIFECA,ONELIFE CAPITAL ADVISORS LTD
ONEPOINT,ONE POINT ONE SOLUTIONS LTD
ONGC,OIL & NATURAL GAS CORP LTD
ONMOBILE,ONMOBILE GLOBAL LIMITED
ONWARDTEC,ONWARD TECHNOLOGIES LTD
OPAL,OPAL LUXURY TIME PRODUCTS LT
OPTIEMUS,OPTIEMUS INFRACOM LTD
OPTOCIRCU,OPTO CIRCUITS INDIA LTD
ORBTEXP,ORBIT EXPORTS LIMITED
ORCHIDPHA,ORCHID PHARMA LTD
ORICONENT,ORICON ENTERPRISES LTD
ORIENTABR,ORIENT ABRASIVES LIMITED
ORIENTALT,ORIENTAL TRIMEX LTD
ORIENTBAN,ORIENTAL BANK OF COMMERCE
ORIENTBEL,ORIENT BELL LTD
ORIENTCEM,ORIENT CEMENT LTD
ORIENTELE,ORIENT ELECTRIC LIMITED
ORIENTHOT,ORIENTAL HOTELS LTD
ORIENTLTD,ORIENT PRESS LTD
ORIENTPPR,ORIENT PAPER & INDUSTRIES
ORIENTREF,ORIENT REFRACTORIES LTD
ORISSAMIN,ORISSA MINERALS DEVELOPMENT
ORTEL,ORTEL COMMUNICATIONS LTD
ORTINLABS,ORTIN LABORATORIES LIMITED
OSWALAGRO,OSWAL AGRO MILLS LTD
PAEL,PAE LTD
PAGEIND,PAGE INDUSTRIES LTD
PAISALO,PAISALO DIGITAL LIMITED
PALASHSEC,PALASH SECURITIES LTD
PALREDTEC,PALRED TECHNOLOGIES LTD
PANACEABI,PANACEA BIOTEC LIMITED
PANACHE,PANACHE DIGILIFE LTD
PANAMAPET,PANAMA PETROCHEM LTD
PANORAMUN,PANORAMIC UNIVERSAL LTD
PANSARI,PANSARI DEVELOPERS LTD
PAPERPROD,HUHTAMAKI PPL LTD
PARABDRUG,PARABOLIC DRUGS LTD
PARACABLE,PARAMOUNT COMMUNICATION LTD
PARAGMILK,PARAG MILK FOODS LTD
PARSVNATH,PARSVNATH DEVELOPERS LTD
PASHUPATI,PASHUPATI COTSPIN LTD
PATELENG,PATEL ENGINEERING LTD
PATINTLOG,PATEL INTERGRATED LOGISTICS
PATSPINLT,PATSPIN INDIA LIMITED
PBAINFRA,PBA INFRASTRUCTURE LTD
PCJEWELLE,PC JEWELLER LTD
PDMJEPAPE,PUDUMJEE PAPER PRODUCTS LTD
PDPL,PARENTERAL DRUGS INDIA LTD
PDSMFL,PDS MULTINATIONAL FASHIONS L
PEARLPOLY,PEARL POLYMERS LIMITED
PEL,PIRAMAL ENTERPRISES LTD
PENIND,PENNAR INDUSTRIES LTD
PENINLAND,PENINSULA LAND LIMITED
PENPEBS,PENNAR ENGINEERED BUILDING S
PENTAGOLD,PENTA GOLD LTD
PERFECT,PERFECT INFRAENGINEERS LTD
PERSISTEN,PERSISTENT SYSTEMS LTD
PETRONENG,PETRON ENGINEERING CONST LTD
PETRONET,PETRONET LNG LTD
PFC,POWER FINANCE CORPORATION
PFIZER,PFIZER LIMITED
PFOCUS,PRIME FOCUS LTD
PFS,PTC INDIA FINANCIAL SERVICES
PGEL,PG ELECTROPLAST LTD
PGHH,PROCTER & GAMBLE HYGIENE
PGIL,PEARL GLOBAL INDUSTRIES LTD
PHCB,PHILLIPS CARBON BLACK LTD
PHOENIXLT,PHOENIX MILLS LIMITED
PIDILITIN,PIDILITE INDUSTRIES LTD
PIGL,POWER & INSTRUMENTATION GUJA
PIIND,PI INDUSTRIES LTD
PILANIINV,PILANI INVESTMENTS&INDUSTRIE
PILITA,PIL ITALICA LIFESTYLE LTD
PINCON,PINCON SPIRIT LTD
PIONDIST,PIONEER DISTILLERIES LTD
PIONEEREM,PIONEER EMBROIDERIES LTD
PITTIENG,PITTI ENGINEERING LTD
PKTEA,PERIA KARAMALAI TEA & PRODUC
PLASTIBLE,PLASTIBLENDS INDIA LTD
PNB,PUNJAB NATIONAL BANK
PNBGILTS,PNB GILTS LTD
PNBHOUSIN,PNB HOUSING FINANCE LTD
PNC,PRITISH NANDY COMMUNICATIONS
PNCINFRA,PNC INFRATECH LTD
POCHIRAJU,POCHIRAJU INDUSTRIES LTD
PODDARHOU,PODDAR HOUSING AND DEVELOPME
PODDARMEN,PODDAR PIGMENTS LTD
POKARNA,POKARNA LTD
POLARIS,POLARIS CONSULTING & SERVICE
POLYMED,POLY MEDICURE LTD
POLYPLEX,POLYPLEX CORPORATION LTD
PONNIEROD,PONNI SUGARS ERODE LTD
POWERGRID,POWER GRID CORP. OF INDIA LTD.
POWERMECH,POWER MECH PROJECTS LTD
PPAP,PPAP AUTOMOTIVE LTD
PRABHAT,PRABHAT DAIRY LTD
PRADIP,PRADIP OVERSEAS LTD
PRAENG,PRAJAY ENGINEERS SYNDICATE
PRAJIND,PRAJ INDUSTRIES LIMITED
PRAKASH,PRAKASH INDUSTRIES LIMITED
PRAKASHCO,PRAKASH CONSTROWELL LTD
PRATIBHA,PRATIBHA INDUSTRIES LTD
PRAXIS,PRAXIS HOME RETAIL LIMITED
PRECAM,PRECISION CAMSHAFTS LTD
PRECOT,PRECOT MERIDIAN LTD
PRECWIRE,PRECISION WIRES INDIA LTD
PREMEXPLN,PREMIER EXPLOSIVES LTD
PREMIER,PREMIER LIMITED
PREMIERPO,PREMIER POLYFILM LTD
PRESSMN,PRESSMAN ADVERTISING LTD
PRESTIGE,PRESTIGE ESTATES PROJECTS
PRICOLLTD,PRICOL LIMITED
PRIMESECU,PRIME SECURITIES LIMITED
PROLIFE,PROLIFE INDUSTRIES LTD
PROVOGE,PROVOGUE (INDIA) LTD
PROZONINT,PROZONE INTU PROPERTIES LTD
PRSMJOHNS,PRISM JOHNSON LIMITED
PSB,PUNJAB & SIND BANK
PSL,PSL LTD
PSPPROJEC,PSP PROJECTS LTD
PSUBNKBEE,RELIANCE ETF PSU BANK BEES
PTC,PTC INDIA LTD
PTL,PTL ENTERPRISES LTD
PULZ,PULZ ELECTRONICS LTD
PUNJABCHE,PUNJAB CHEMICALS & CROP PROT
PUNJLLOYD,PUNJ LLOYD LIMITED
PURVA,PURAVANKARA LTD
PUSHPREAL,PUSHPANJALI REALMS & INFRATE
PVP,PVP VENTURES LTD
PVR,PVR LTD
QGOLDHALF,QUANTUM GOLD FUND
QNIFTY,QUANTUM NIFTY ETF
QUESS,QUESS CORP LTD
QUICKHEAL,QUICK HEAL TECHNOLOGIES LTD
QUINTEGRA,QUINTEGRA SOLUTIONS LTD
RADAAN,RADAAN MEDIAWORKS INDIA LTD
RADICO,RADICO KHAITAN LTD
RADIOCITY,MUSIC BROADCAST LTD
RAIN,RAIN INDUSTRIES LTD
RAINBOWPA,RAINBOW PAPERS LTD
RAJESHEXP,RAJESH EXPORTS LIMITED
RAJRAYON,RAJ RAYON INDUSTRIES LTD
RAJSREESU,RAJSHREE SUGARS & CHEMICALS
RAJTV,RAJ TELEVISION NETWORK LTD
RAJVIR,RAJVIR INDUSTRIES LTD
RALLIS,RALLIS INDIA LTD
RAMANEWS,SHREE RAMA NEWSPRINT LTD
RAMASTEEL,RAMA STEEL TUBES LTD
RAMCOCEM,RAMCO CEMENTS LTD/THE
RAMCOIND,RAMCO INDUSTRIES LTD
RAMCOSYS,RAMCO SYSTEMS LTD
RAMKY,RAMKY INFRASTRUCTURE LTD
RAMSARUP,RAMSARUP INDUSTRIES LTD
RANASUG,RANA SUGARS LIMITED
RANEENGIN,RANE ENGINE VALVES LTD
RANEHOLDI,RANE HOLDINGS LTD
RATNAMANI,RATNAMANI METALS & TUBES LTD
RAYMOND,RAYMOND LIMITED
RBL,RANE BRAKE LINING LTD
RBLBANK,RBL BANK LTD
RCF,RASHTRIYA CHEMICALS & FERT
RCOM,RELIANCE COMMUNICATIONS LTD
RECLTD,RURAL ELECTRIFICATION CORP
REDINGTON,REDINGTON INDIA LTD
REFEX,REFEX INDUSTRIES LTD
REGENCERA,REGENCY CERAMICS LIMITED
RELAXO,RELAXO FOOTWEARS LTD
RELCAPITA,RELIANCE CAPITAL LIMITED
RELCNX100,RELIANCE ETF NIFTY 100
RELCONS,RELIANCE ETF CONSUMPTION
RELDIVOPP,RELIANCE ETF DIVIDEND OPPORT
RELIABLE,RELIABLE DATA SERVICES LTD
RELIANCE,RELIANCE INDUSTRIES LIMITED
RELIGARE,RELIGARE ENTERPRISES LIMITED
RELINFRA,RELIANCE INFRASTRUCTURE LTD
RELNV20,RELIANCE ETF NV20
REMSONSIN,REMSONS INDUSTRIES LTD
RENUKA,SHREE RENUKA SUGARS LTD
REPCOHOME,REPCO HOME FINANCE LTD
REPRO,REPRO INDIA LIMITED
RESPONIND,RESPONSIVE INDUSTRIES LTD
REVATHI,REVATHI EQUIPMENT LTD
RHFL,RELIANCE HOME FINANCE LTD
RICOAUTO,RICO AUTO INDUSTRIES LTD
RIIL,RELIANCE INDUS INFRASTRUCT
RJL,RENAISSANCE JEWELLERY LTD
RKDL,RAVI KUMAR DISTILLERIES LTD
RKEC,RKEC PROJECTS LTD
RKFORGE,RAMKRISHNA FORGINGS LTD
RMCL,RADHA MADHAV CORPORATION LTD
RMDRIP,RM DRIP AND SPRINKLERS SYS L
RML,RANE MADRAS LTD
RNAM,RELIANCE NIPPON LIFE ASSET M
RNAVAL,RELIANCE NAVAL AND ENGINEERI
ROHITFERR,ROHIT FERRO TECH LTD
ROHLTD,ROYAL ORCHID HOTELS LTD
ROLLT,ROLLATAINERS LTD
ROLTA,ROLTA INDIA LIMITED
ROSSELLIN,ROSSELL INDIA LIMITED
RPGLIFE,RPG LIFE SCIENCES LTD
RPOWER,RELIANCE POWER LIMITED
RPPINFRA,R.P.P. INFRA PROJECTS LTD
RRSLGETF,RELIANCE ETF LONG TERM GILT
RSSOFTWAR,R.S. SOFTWARE (INDIA)
RSWM,RSWM LIMITED
RSYSTEMS,R SYSTEMS INTERNATIONAL LTD
RTNINFRA,RATTANINDIA INFRASTRUCTURE L
RTNPOWER,RATTANINDIA POWER LTD
RUBYMILLS,RUBY MILLS LTD
RUCHINFRA,RUCHI INFRASTRUCTURE LTD
RUCHIRA,RUCHIRA PAPERS LTD
RUCHISOYA,RUCHI SOYA INDUSTRIES LTD
RUPA,RUPA & COMPANY LTD
RUSHIL,RUSHIL DECOR LTD
SABEVENTS,SAB EVENTS & GOVERNANCE NOW
SABTN,SRI ADHIKARI BROS TELE NTWRK
SADBHAV,SADBHAV ENGINEERING LTD
SADBHIN,SADBHAV INFRASTRUCTURE PROJE
SAGARDEEP,SAGARDEEP ALLOYS LTD
SAGCEM,SAGAR CEMENTS LIMITED
SAIL,STEEL AUTHORITY OF INDIA
SAKAR,SAKAR HEALTHCARE LTD
SAKHTISUG,SAKTHI SUGARS LIMITED
SAKSOFT,SAKSOFT LIMITED
SAKUMA,SAKUMA EXPORTS LTD
SALASAR,SALASAR TECHNO ENGINEERING L
SALONA,SALONA COTSPIN LTD
SALORAINT,SALORA INTERNATIONAL LTD
SALSTEEL,SAL STEEL LTD
SALZERELE,SALZER ELECTRONICS LTD
SAMBHAAV,SAMBHAAV MEDIA LTD
SAMTEL,SAMTEL COLOR LIMITED
SANCO,SANCO INDUSTRIES LTD
SANDESH,SANDESH LIMITED
SANDHAR,SANDHAR TECHNOLOGIES LTD
SANGAMIND,SANGAM (INDIA) LIMITED
SANGHIIND,SANGHI INDUSTRIES LIMITED
SANGHVIFO,SANGHVI FORGING & ENGINEERIN
SANGHVIMO,SANGHVI MOVERS LIMITED
SANGINITA,SANGINITA CHEMICALS LTD
SANOFI,SANOFI INDIA LTD
SANWARIA,SANWARIA CONSUMER LTD
SARDAEN,SARDA ENERGY & MINERALS LTD
SAREGAMA,SAREGAMA INDIA LTD
SARLAPOLY,SARLA PERFORMANCE FIBERS LTD
SARVESHWA,SARVESHWAR FOODS LTD
SASKEN,SASKEN TECHNOLOGIES LTD
SASTASUND,SASTASUNDAR VENTURES LIMITED
SATHAISPA,SATHAVAHANA ISPAT LTD
SATIN,SATIN CREDITCARE NETWORK LTD
SBILIFE,SBI LIFE INSURANCE CO LTD
SBIN,STATE BANK OF INDIA
SCAPDVR,STAMPEDE CAPITAL LTD-DVR
SCHAEFFLE,SCHAEFFLER INDIA LTD
SCHAND,S CHAND AND CO LTD
SCHNEIDER,SCHNEIDER ELECTRIC INFRASTRU
SCI,SHIPPING CORP OF INDIA LTD
SDBL,SOM DISTILLERIES & BREWERIES
SEAMECLTD,SEAMEC LTD
SECURCRED,SECUR CREDENTIALS LTD
SELAN,SELAN EXPLORATION TECHNOLOGY
SELMCL,SEL MANUFACTURING CO. LTD.
SEPOWER,SE POWER LTD
SEQUENT,SEQUENT SCIENTIFIC LTD
SERVOTECH,SERVOTECH POWER SYSTEMS LTD
SESHAPAPE,SESHASAYEE PAPER & BOARDS
SETCO,SETCO AUTOMOTIVE LTD
SETF10GIL,SBI-ETF 10 YEAR GILT
SETFGOLD,SBI-ETF GOLD
SETFNIF50,SBI-ETF NIFTY 50
SETFNIFBK,SBI-ETF NIFTY BANK
SETFNN50,SBI ETF-NIFTY NEXT 50
SEZAL,SEZAL GLASS LTD
SFHL,SUNDARAM FINANCE HOLDINGS LT
SFL,SHEELA FOAM LTD
SGFL,SHREE GANESH FORGINGS LTD
SGL,STL GLOBAL LIMITED
SHAHALLOY,SHAH ALLOYS LTD
SHAIVAL,SHAIVAL REALITY LTD
SHAKTIPUM,SHAKTI PUMPS (INDIA) LTD
SHALBY,SHALBY LTD
SHALPAINT,SHALIMAR PAINTS LTD
SHANKARA,SHANKARA BUILDING PRODUCTS L
SHANTI,SHANTI OVERSEAS INDIA LTD
SHANTIGEA,SHANTHI GEARS LIMITED
SHARDACRO,SHARDA CROPCHEM LTD
SHARDAMOT,SHARDA MOTOR INDUSTRIES LTD
SHARIABEE,RELIANCE ETF SHARIAH BEES
SHARONBIO,SHARON BIO-MEDICINE LTD
SHEMAROO,SHEMAROO ENTERTAINMENT LTD
SHILPAMED,SHILPA MEDICARE LTD
SHILPI,SHILPI CABLE TECHNOLOGIES LT
SHIRPUR-G,SHIRPUR GOLD REFINERY LTD
SHIVAMAUT,SHIVAM AUTOTECH LTD
SHIVAMILL,SHIVA MILLS LTD
SHIVATEX,SHIVA TEXYARN LTD
SHK,SH KELKAR & CO LTD
SHOPERSTO,SHOPPERS STOP LTD
SHRADHA,SHRADHA INFRAPROJECTS NAGPUR
SHREECEM,SHREE CEMENT LIMITED
SHREEPUSH,SHREE PUSHKAR CHEMICALS & FE
SHREERAMA,SHREE RAMA MULTI-TECH LTD
SHREYANIN,SHREYANS INDUSTRIES LTD
SHREYAS,SHREYAS SHIPPING & LOGISTICS
SHRIPISTO,SHRIRAM PISTONS & RINGS LTD
SHRIRAMCI,SHRIRAM CITY UNION FINANCE
SHRIRAMEP,SHRIRAM EPC LIMITED
SHYAMCENT,SHYAM CENTURY FERROUS LTD
SHYAMTEL,SHYAM TELECOM LTD
SICAGEN,SICAGEN INDIA LTD
SICAL,SICAL LOGISTICS LTD
SIEMENS,SIEMENS LTD
SIGNET,SIGNET INDUSTRIES LTD
SIIL,SUPREME INDIA IMPEX LTD
SIKKO,SIKKO INDUSTRIES LTD
SIL,STANDARD INDUSTRIES LIMITED
SILINV,SIL INVESTMENTS LIMITED
SILLYMONK,SILLY MONKS ENTERTAINMENT LT
SILVERTUC,SILVER TOUCH TECHNOLOGIES LT
SIMBHALS,SIMBHAOLI SUGARS LTD-NEW
SIMPLEX,SIMPLEX PROJECTS LIMITED
SIMPLEXIN,SIMPLEX INFRASTRUCTURES LTD
SINTERCOM,SINTERCOM INDIA LTD
SINTEX,SINTEX INDUSTRIES LTD
SIRCA,SIRCA PAINTS INDIA LTD
SIS,SECURITY AND INTELLIGENCE SE
SITASHREE,SITA SHREE FOOD PRODUCTS LTD
SITINET,SITI NETWORKS LTD
SIYSIL,SIYARAM SILK MILLS LTD
SJVN,SJVN LTD
SKFINDIA,SKF INDIA LTD
SKIL,SKIL INFRASTRUCTURE LTD
SKIPPER,SKIPPER LTD
SKMEGGPRO,SKM EGG PRODUCTS EXPORT LTD
SKML,SRI KRISHNA METCOM LTD
SKSTEXTIL,SKS TEXTILES LTD
SMARTLINK,SMARTLINK HOLDINGS LTD
SMLISUZU,SML ISUZU LTD
SMPL,SPLENDID METAL PRODUCTS LTD
SMSLIFE,SMS LIFESCIENCES INDIA LTD
SMSPHARMA,SMS PHARMACEUTICALS LTD
SMVD,SMVD POLY PACK LTD
SNOWMAN,SNOWMAN LOGISTICS LTD
SOBHA,SOBHA LTD
SOFTTECH,SOFTTECH ENGINEERS LTD
SOLARA,SOLARA ACTIVE PHARMA SCIENCE
SOLARINDS,SOLAR INDUSTRIES INDIA LTD
SOLEX,SOLEX ENERGY LTD
SOMANYCER,SOMANY CERAMICS LIMITED
SOMATEX,SOMA TEXTILES & INDUSTRIES
SOMICONVE,SOMI CONVEYOR BELTINGS LTD
SONATSOFT,SONATA SOFTWARE LTD
SONISOYA,SONI SOYA PRODUCTS LTD
SORILINFR,SORIL INFRA RESOURCES LTD
SOTL,SAVITA OIL TECHNOLOGIES LTD
SOUTHBANK,SOUTH INDIAN BANK LTD
SOUTHWEST,SOUTH WEST PINNACLE EXPLORAT
SPAL,SP APPARELS LTD
SPARC,SUN PHARMA ADVANCED RESEARCH
SPCENET,SPACENET ENTERPRISES INDIA L
SPECIALIT,SPECIALITY RESTAURANTS LTD
SPENTEX,SPENTEX INDUSTRIES LIMITED
SPIC,SOUTHERN PETROCHEMICAL INDS
SPICEMOBI,SPICE MOBILITY LTD
SPLIL,SPL INDUSTRIES LTD
SPMLINFRA,SPML INFRA LTD
SPTL,SINTEX PLASTICS TECHNOLOGY L
SPYL,SHEKHAWATI POLY-YARN LTD
SQSBFSI,SQS INDIA BFSI LTD
SREEL,SREELEATHERS LTD
SREINFRA,SREI INFRASTRUCTURE FINANCE
SRF,SRF LIMITED
SRHHYPOLT,SREE RAYALASEEMA HI-STRENGTH
SRIPIPES,SRIKALAHASTHI PIPES LTD
SRIRAM,SHRI RAM SWITCHGEARS LTD
SRPL,SHREE RAM PROTEINS LTD
SRSLTD,SRS LTD
SRTRANSFI,SHRIRAM TRANSPORT FINANCE
SSINFRA,SS INFRASTRUCTURE DVLPT CON
SSWL,STEEL STRIPS WHEELS LTD
STAMPEDE,STAMPEDE CAPITAL LTD
STAN,STANDARD CHARTER-INDIAN DR
STAR,STRIDES SHASUN LTD
STARCEMEN,STAR CEMENT LIMITED
STARPAPER,STAR PAPER MILLS LIMITED
STCINDIA,STATE TRADING CORP OF INDIA
STEELCITY,STEEL CITY SECURITIES LTD
STEELXIND,STEEL EXCHANGE INDIA LTD
STEL,STEL HOLDINGS LTD
STERTOOLS,STERLING TOOLS LTD
STINDIA,STI INDIA LIMITED
STRTECH,STERLITE TECHNOLOGIES LTD
SUBEX,SUBEX LIMITED
SUBROS,SUBROS LIMITED
SUDARSCHE,SUDARSHAN CHEMICAL INDS LTD
SUJANAUNI,SUJANA UNIVERSAL INDUSTRIES
SUMEETIND,SUMEET INDUSTRIES LTD
SUMMITSEC,SUMMIT SECURITIES LTD
SUNCLAYLT,SUNDARAM CLAYTON LTD
SUNDARAM,SUNDARAM MULTI PAP LIMITED
SUNDARMFI,SUNDARAM FINANCE LTD
SUNDRMBRA,SUNDARAM BRAKE LININGS LTD
SUNDRMFAS,SUNDRAM FASTENERS LIMITED
SUNFLAG,SUNFLAG IRON & STEEL CO LTD
SUNILHITE,SUNIL HITECH ENGINEERS LTD
SUNPHARMA,SUN PHARMACEUTICAL INDUS
SUNTECK,SUNTECK REALTY LTD
SUNTV,SUN TV NETWORK LIMITED
SUPERHOUS,SUPERHOUSE LTD
SUPERSPIN,SUPER SPINNING MILLS
SUPPETRO,SUPREME PETROCHEM LIMITED
SUPRAJIT,SUPRAJIT ENGINEERING LTD
SUPREMEI1,SUPREME INFRASTRUCTURE INDIA
SUPREMEIN,SUPREME INDUSTRIES LTD
SUPREMETE,SUPREME TEX MART LIMITED
SURANACOR,SURANA CORP LTD
SURANAIND,SURANA INDUSTRIES LTD
SURANASOL,SURANA SOLAR LTD
SURANATP,SURANA TELECOM & POWER LTD
SUREVIN,SUREVIN BPO SERVICES LTD
SURYALAXM,SURYALAKSHMI COTTON MILLS
SURYAROSN,SURYA ROSHNI LIMITED
SUTLEJTEX,SUTLEJ TEXTILES AND INDUSTRI
SUULD,SUUMAYA LIFESTYLE LTD
SUVEN,SUVEN LIFE SCIENCES LTD
SUZLON,SUZLON ENERGY LIMITED
SVLL,SHREE VASU LOGISTICS LTD
SWANENERG,SWAN ENERGY LTD
SWARAJENG,SWARAJ ENGINES LIMITED
SWELECTES,SWELECT ENERGY SYSTEMS LTD
SYMPHONY,SYMPHONY LTD
SYNCOM,SYNCOM HEALTHCARE LTD
SYNDIBANK,SYNDICATE BANK
SYNGENE,SYNGENE INTERNATIONAL LTD
TAINWALCH,TAINWALA CHEMICALS & PLAST
TAJGVK,TAJ GVK HOTELS & RESORTS LTD
TAKE,TAKE SOLUTIONS LIMITED
TALBROAUT,TALBROS AUTOMOTIVE COMPON
TALWALKAR,TALWALKARS BETTER VALUE FIT
TALWGYM,TALWALKARS LIFESTYLES LIMITED
TANLA,TANLA SOLUTIONS LIMITED
TANTIACON,TANTIA CONSTRUCTION LTD
TARACHAND,TARA CHAND LOGISTIC SOLUTION
TARAJEWEL,TARA JEWELS LTD
TARAPUR,TARAPUR TRANSFORMERS LTD
TARMAT,TARMAT LIMITED
TASTYBITE,TASTY BITE EATABLES LTD
TATACHEM,TATA CHEMICALS LIMITED
TATACOFFE,TATA COFFEE LTD
TATACOMM,TATA COMMUNICATIONS LIMITED
TATAELXSI,TATA ELXSI LIMITED
TATAGLOBA,TATA GLOBAL BEVERAGES LTD
TATAINVES,TATA INVESTMENT CORP LTD
TATAMETAL,TATA METALIKS LTD
TATAMOTOR,TATA MOTORS LTD
TATAMTRDV,TATA MOTORS LTD-A-DVR
TATAPOWER,TATA POWER CO LTD
TATASPONG,TATA SPONGE IRON LTD
TATASTEE1,TATA STEEL LTD-PARTLY PAID
TATASTEEL,TATA STEEL LIMITED
TBZ,TRIBHOVANDAS BHIMJI ZAVERI L
TCI,TRANSPORT CORP OF INDIA LTD
TCIDEVELO,TCI DEVELOPERS LTD
TCIEXP,TCI EXPRESS LIMITED
TCIFINANC,TCI FINANCE LTD
TCPLPACK,TCPL PACKAGING LTD
TCS,TATA CONSULTANCY SVCS LTD
TDPOWERSY,TD POWER SYSTEMS LTD
TEAMLEASE,TEAMLEASE SERVICES LTD
TECHIN,TECHINDIA NIRMAN LTD
TECHM,TECH MAHINDRA LTD
TECHNO,TECHNO ELECTRIC & ENGINEERIN
TECHNOFAB,TECHNOFAB ENGINEERING LTD
TEJASNET,TEJAS NETWORKS LTD
TERASOFT,TERA SOFTWARE LTD
TEXINFRA,TEXMACO INFRASTRUCTURE & HOL
TEXMOPIPE,TEXMO PIPES AND PRODUCTS LTD
TEXRAIL,TEXMACO RAIL & ENGINEERING L
TFCILTD,TOURISM FINANCE CORP INDIA
TFL,TRANSWARRANTY FINANCE LTD
TGBHOTELS,TGB BANQUETS AND HOTELS LTD
THANGAMAY,THANGAMAYIL JEWELLERY LTD
THEJO,THEJO ENGINEERING LTD
THEMISMED,THEMIS MEDICARE LTD
THERMAX,THERMAX LIMITED
THIRUSUGA,THIRU AROORAN SUGARS LTD
THOMASCOO,THOMAS COOK (INDIA) LIMITED
THOMASCOT,THOMAS SCOTT INDIA LTD
THYROCARE,THYROCARE TECHNOLOGIES LTD
TI,TILAKNAGAR INDUSTRIES LTD
TIDEWATER,TIDE WATER OIL CO INDIA LTD
TIFIN,TI FINANCIAL HOLDINGS LTD
TIIL,TECHNOCRAFT INDUSTRIES INDIA
TIINDIA,TUBE INVESTMENTS OF INDIA LT
TIJARIA,TIJARIA POLYPIPES LTD
TIL,TIL LIMITED
TIMESGTY,TIMES GUARANTY LTD
TIMETECHN,TIME TECHNOPLAST LIMITED
TIMKEN,TIMKEN INDIA LIMITED
TINPLATE,TINPLATE CO OF INDIA LTD
TIPSINDLT,TIPS INDUSTRIES LTD
TIRUMALCH,THIRUMALAI CHEMICALS LTD
TIRUPATI,SHREE TIRUPATI BALAJEE FIBC
TIRUPATIF,TIRUPATI FORGE LTD
TITAN,TITAN CO LTD
TMRVL,MANDHANA RETAIL VENTURES LTD
TNPETRO,TAMILNADU PETROPRODUCTS LTD
TNPL,TAMILNADU NEWSPRINT & PAPER
TNTELE,TAMILNADU TELECOMMUN LTD
TOKYOPLAS,TOKYO PLAST INTERNATIONAL
TORNTPHAR,TORRENT PHARMACEUTICALS LTD
TORNTPOWE,TORRENT POWER LTD
TOTAL,TOTAL TRANSPORT SYSTEMS LTD
TOUCHWOOD,TOUCHWOOD ENTERTAINMENT LTD
TPLPLASTE,TPL PLASTECH LTD
TRANSWIND,TRANSWIND INFRASTRUCTURES LT
TREEHOUSE,TREE HOUSE EDUCATION AND ACC
TRENT,TRENT LTD
TRF,TRF LTD
TRIDENT,TRIDENT LTD
TRIGYN,TRIGYN TECHNOLOGIES LIMITED
TRIL,TRANSFORMERS & RECTIFIERS IN
TRITURBIN,TRIVENI TURBINE LTD
TRIVENI,TRIVENI ENGINEERING & INDUS
TTKHLTCAR,TTK HEALTHCARE LTD
TTKPRESTI,TTK PRESTIGE LTD
TTL,TT LIMITED
TTML,TATA TELESERVICES MAHARASHTR
TULSI,TULSI EXTRUSIONS LIMITED
TV18BRDCS,TV18 BROADCAST LTD
TVSELECT,TVS ELECTRONICS LIMITED
TVSMOTOR,TVS MOTOR CO LTD
TVSSRICHA,TVS SRICHAKRA LTD
TVTODAY,TV TODAY NETWORK LTD
TVVISION,TV VISION LTD
TWL,TITAGARH WAGONS LTD
UBL,UNITED BREWERIES LTD
UCALFUEL,UCAL FUEL SYSTEMS LIMITED
UCOBANK,UCO BANK
UFLEX,UFLEX LIMITED
UFO,UFO MOVIEZ INDIA LTD
UGARSUGAR,UGAR SUGAR WORKS LTD
UJAAS,UJAAS ENERGY LIMITED
UJJIVAN,UJJIVAN FINANCIAL SERVICES L
ULTRACEMC,ULTRATECH CEMENT LTD
UMANGDAIR,UMANG DAIRIES LTD
UMESLTD,USHA MARTIN EDUCATION & SOLU
UNICHEMLA,UNICHEM LABORATORIES LTD
UNIENTER,UNIPHOS ENTERPRISES LTD
UNIINFO,UNIINFO TELECOM SERVICES LTD
UNIONBANK,UNION BANK OF INDIA
UNITECH,UNITECH LIMITED
UNITEDBNK,UNITED BANK OF INDIA
UNITEDPOL,UNITED POLYFAB GUJARAT LTD
UNITEDTEA,UNITED NILGIRI TEA ESTATES
UNITY,UNITY INFRAPROJECTS LTD
UNIVASTU,UNIVASTU INDIA LTD
UNIVCABLE,UNIVERSAL CABLES LTD
UPL,UPL LTD
URAVI,URAVI T AND WEDGE LAMPS LTD
URJA,URJA GLOBAL LTD
USHAMART,USHA MARTIN LTD
USHERAGRO,USHER AGRO LTD
UTINEXT50,UTI NIFTY NEXT 50 ETF
UTTAMSTL,UTTAM GALVA STEELS LTD
UTTAMSUGA,UTTAM SUGAR MILLS LTD
UVSL,UTTAM VALUE STEELS LTD
V2RETAIL,V2 RETAIL LTD
VADILALIN,VADILAL INDUSTRIES LIMITED
VAIBHAVGB,VAIBHAV GLOBAL LIMITED
VAISHALI,VAISHALI PHARMA LTD
VAKRANGEE,VAKRANGEE LTD
VARDHACRL,VARDHMAN ACRYLICS LTD
VARDMNPOL,VARDHMAN POLYTEX LIMITED
VASA,VASA RETAIL & OVERSEAS LTD
VASCONEQ,VASCON ENGINEERS LTD
VASWANI,VASWANI INDUSTRIES LTD
VBL,VARUN BEVERAGES LTD
VEDL,VEDANTA LTD
VENKEYS,VENKY'S (INDIA) LIMITED
VENUSREM,VENUS REMEDIES LIMITED
VERA,VERA SYNTHETIC LTD
VERTOZ,VERTOZ ADVERTISING LTD
VESUVIUS,VESUVIUS INDIA LIMITED
VETO,VETO SWITCHGEARS AND CABLES
VGUARD,V-GUARD INDUSTRIES LTD
VHL,VARDHMAN HOLDINGS LTD
VICEROY,VICEROY HOTELS LTD
VIDEOIND,VIDEOCON INDUSTRIES LTD
VIDHIING,VIDHI SPECIALTY FOOD INGREDI
VIJAYABAN,VIJAYA BANK
VIJIFIN,VIJI FINANCE LTD
VIJSHAN,VIJAY SHANTHI BUILDERS LTD
VIKASECO,VIKAS ECOTECH LTD
VIMTALABS,VIMTA LABS LIMITED
VINATIORG,VINATI ORGANICS LIMITED
VINDHYATE,VINDHYA TELELINKS LIMITED
VINYLINDI,VINYL CHEMICALS (INDIA) LTD
VIPCLOTHN,VIP CLOTHING LTD
VIPIND,V.I.P. INDUSTRIES LTD
VIPULLTD,VIPUL LTD
VISAKAIND,VISAKA INDUSTRIES LIMITED
VISASTEEL,VISA STEEL LTD
VISESHINF,VISESH INFOTECNICS LTD
VISHNU,VISHNU CHEMICALS LIMITED
VIVIDHA,VISAGAR POLYTEX LIMITED
VIVIMEDLA,VIVIMED LABS LTD
VLSFINANC,VLS FINANCE LIMITED
VMART,VMART RETAIL LTD
VOLTAMP,VOLTAMP TRANSFORMERS LTD
VOLTAS,VOLTAS LIMITED
VRLLOG,VRL LOGISTICS LTD
VSCL,VADIVARHE SPECIALITY CHEMICA
VSSL,VARDHMAN SPECIAL STEELS LTD
VSTIND,VST INDUSTRIES LIMITED
VSTTILLER,VST TILLERS TRACTORS LTD
VTL,VARDHMAN TEXTILES LTD
WABAG,VA TECH WABAG LTD
WABCOINDI,WABCO INDIA LIMITED
WALCHANNA,WALCHANDNAGAR INDUSTRIES
WANBURY,WANBURY LTD
WEALTH,WEALTH FIRST PORTFOLIO MANAG
WEBELSOLA,WEBSOL ENERGY SYSTEM LTD
WEIZFOREX,WEIZMANN FOREX LTD
WEIZMANIN,WEIZMANN LTD
WELCORP,WELSPUN CORP LTD
WELENT,WELSPUN ENTERPRISES LTD/NEW
WELINV,WELSPUN INVESTMENT & COMMERC
WELSPUNIN,WELSPUN INDIA LTD
WENDT,WENDT INDIA LIMITED
WHEELS,WHEELS INDIA LTD
WHIRLPOOL,WHIRLPOOL OF INDIA LTD
WILLAMAGO,WILLIAMSON MAGOR & CO LTD
WINDMACHI,WINDSOR MACHINES LTD
WINSOME,WINSOME YARNS LIMITED
WIPL,WESTERN INDIA PLYWOODS LTD
WIPRO,WIPRO LTD
WOCKPHARM,WOCKHARDT LIMITED
WONDERLA,WONDERLA HOLIDAYS LTD
WORTH,WORTH PERIPHERALS LTD
WSI,W S INDUSTRIES INDIA LTD
WSTCSTPAP,WEST COAST PAPER MILLS LTD
XCHANGING,XCHANGING SOLUTIONS LTD
XLENERGY,XL ENERGY LTD
XPROINDIA,XPRO INDIA LTD
